Place,Name,Sex,Age,Equipment,Division,BodyweightKg,WeightClassKg,Squat1Kg,Squat2Kg,Squat3Kg,Squat4Kg,Best3SquatKg,Bench1Kg,Bench2Kg,Bench3Kg,Bench4Kg,Best3BenchKg,Deadlift1Kg,Deadlift2Kg,Deadlift3Kg,Deadlift4Kg,Best3DeadliftKg,TotalKg,Event,BirthDate
1,Chelsea Byrom,F,23,Raw,F_JR_ABPU,59.3,60,120,125,130,,130,62.5,67.5,70,,70,135,145,152.5,,152.5,352.5,SBD,
2,Maisie MacCormack,F,23,Raw,F_JR_ABPU,58.6,60,110,115,120,,120,60,65,67.5,,67.5,150,-160,160,,160,347.5,SBD,
3,Tehya-Leonie Kirby,F,23,Raw,F_JR_ABPU,56.5,60,107.5,-115,115,,115,60,-65,-65,,60,107.5,117.5,125,,125,300,SBD,
1,Kim Eastwood,F,23,Raw,F_JR_ABPU,66.3,67.5,115,122.5,127.5,,127.5,65,70,-72.5,,70,120,130,-132.5,,130,327.5,SBD,
1,Francesca Bond,F,22,Raw,F_JR_ABPU,70.7,75,102.5,110,117.5,,117.5,65,70,-72.5,,70,135,145,152.5,,152.5,340,SBD,
1,Deborah Hartill,F,44,Raw,F_MR_1_ABPU,55.6,56,60,70,75,,75,40,47.5,50,,50,90,100,110,,110,235,SBD,
1,Michelle Vettese,F,40,Raw,F_MR_1_ABPU,56.7,60,97.5,107.5,-112.5,,107.5,52.5,57.5,60.5,,60.5,-127.5,127.5,-135,,127.5,295.5,SBD,
2,Fiona Campbell,F,42,Raw,F_MR_1_ABPU,59,60,82.5,90,-92.5,,90,52.5,55,57.5,,57.5,95,105,-107.5,,105,252.5,SBD,
1,Laura Smith #1,F,40,Raw,F_MR_1_ABPU,64.4,67.5,110,120,135,,135,45,50,52.5,,52.5,120,130,142.5,150.5,142.5,330,SBD,
2,Vikki Thomas,F,42,Raw,F_MR_1_ABPU,64.4,67.5,100,110,-120,,110,45,50,-52.5,,50,117.5,125,130,,130,290,SBD,
1,Candice Westaway,F,40,Raw,F_MR_1_ABPU,71.3,75,105,110,112.5,,112.5,65,70,-75,,70,-135,135,-145,,135,317.5,SBD,
1,Leighanne Russell,F,40,Raw,F_MR_1_ABPU,86.7,90,160,170,177.5,,177.5,80,85,90,,90,180,190,200,,200,467.5,SBD,
NS,Heulwyn Roberts,F,46,Raw,F_MR_2_ABPU,,,,,,,,,,,,,,,,,,,SBD,
NS,Joanna Halliday,F,47,Raw,F_MR_2_ABPU,,,,,,,,,,,,,,,,,,,SBD,
1,Donna Bradbury,F,48,Raw,F_MR_2_ABPU,58.9,60,110,117.5,120,,120,67.5,72.5,75,,75,130,137.5,145,152.5,145,340,SBD,
2,Sarah Bickley,F,49,Raw,F_MR_2_ABPU,57.7,60,100,110,-115,,110,57.5,62.5,-65,,62.5,127.5,135,140,,140,312.5,SBD,
3,Elizabeth Culyer,F,48,Raw,F_MR_2_ABPU,59.2,60,75,80,87.5,,87.5,47.5,52.5,-55,,52.5,135,142.5,150,-151,150,290,SBD,
1,Imogen Skoulding,F,47,Raw,F_MR_2_ABPU,65.9,67.5,102.5,110,115,,115,-67.5,67.5,72.5,,72.5,120,127.5,135,,135,322.5,SBD,
2,Cleary Clifford,F,46,Raw,F_MR_2_ABPU,66.9,67.5,85,90,92.5,,92.5,45,47.5,50,,50,115,120,122.5,,122.5,265,SBD,
DQ,Imogen House,F,45,Raw,F_MR_2_ABPU,61.7,67.5,70,75,80,,80,-45,-45,-45,,,95,102.5,105,,105,,SBD,
1,Jackie Langridge,F,47,Raw,F_MR_2_ABPU,73.4,75,-115,125,-130,,125,60,-62.5,-62.5,,60,130,142.5,151,,151,336,SBD,
2,Mary Mason-Darby,F,49,Raw,F_MR_2_ABPU,73.2,75,80,90,100,,100,50,55,57.5,,57.5,100,110,120,,120,277.5,SBD,
1,Kerry Kennedy,F,45,Raw,F_MR_2_ABPU,104.3,110,-110,110,120,,120,50,60,-62.5,,60,150,160,-170,,160,340,SBD,
NS,Audra Corbett,F,54,Raw,F_MR_3_ABPU,,,,,,,,,,,,,,,,,,,SBD,
NS,Jane Bonny,F,53,Raw,F_MR_3_ABPU,,,,,,,,,,,,,,,,,,,SBD,
1,Julie Green #1,F,54,Raw,F_MR_3_ABPU,105.4,110,110,125,-135,,125,60,67.5,70,,70,120,130,140,,140,335,SBD,
1,Diana Chimhundu,F,58,Raw,F_MR_4_ABPU,66.1,67.5,95,100,105,,105,45,47.5,50,,50,-130,132.5,137.5,,137.5,292.5,SBD,
1,Deb Harris,F,55,Raw,F_MR_4_ABPU,80.5,82.5,90,97.5,110,,110,65,70,-75,,70,140,150,-160,,150,330,SBD,
2,Patricia Wetton,F,59,Raw,F_MR_4_ABPU,79.8,82.5,90,97.5,-105,,97.5,62.5,65,-67.5,,65,-130,130,132.5,,132.5,295,SBD,
3,Hetty Salmon,F,56,Raw,F_MR_4_ABPU,80.6,82.5,87.5,92.5,95,,95,60,65,67.5,,67.5,105,112.5,-120,,112.5,275,SBD,
1,Diane Romano-Woodward,F,67,Raw,F_MR_6_ABPU,83.2,90,95,102.5,107.5,,107.5,57.5,62.5,-65,,62.5,115,120,125,,125,295,SBD,
1,Sandra Coombes,F,73,Raw,F_MR_7_ABPU,77.5,82.5,70,75,77.5,,77.5,47.5,50,-52.5,,50,95,102.5,105,110,105,232.5,SBD,
NS,Joanne Ogogo,F,37,Raw,F_OR_ABPU,,,,,,,,,,,,,,,,,,,SBD,
NS,Michelle Bauer,F,28,Raw,F_OR_ABPU,,,,,,,,,,,,,,,,,,,SBD,
NS,Rachel Bagnall,F,35,Raw,F_OR_ABPU,,,,,,,,,,,,,,,,,,,SBD,
NS,Rachel Evans,F,25,Raw,F_OR_ABPU,,,,,,,,,,,,,,,,,,,SBD,
NS,Rose Pope,F,32,Raw,F_OR_ABPU,,,,,,,,,,,,,,,,,,,SBD,
1,Emily Bullock,F,34,Raw,F_OR_ABPU,48,48,95,100,105,,105,45,47.5,55,,55,125,132.5,-135,,132.5,292.5,SBD,
1,Tehya-Leonie Kirby,F,23,Raw,F_OR_ABPU,56.5,60,107.5,-115,115,,115,60,-65,-65,,60,107.5,117.5,125,,125,300,SBD,
2,Hallie Aldred,F,36,Raw,F_OR_ABPU,58.6,60,85,92.5,-97.5,,92.5,52.5,57.5,60,,60,120,127.5,132.5,,132.5,285,SBD,
1,Siobhan Read,F,32,Raw,F_OR_ABPU,64.2,67.5,117.5,127.5,135,,135,85,90,-95,,90,157.5,167.5,175,,175,400,SBD,
2,Natasha Brown,F,28,Raw,F_OR_ABPU,66.6,67.5,140,150,-155,,150,72.5,77.5,80,,80,152.5,165,170,,170,400,SBD,
3,Beckie Hebson,F,38,Raw,F_OR_ABPU,62.9,67.5,110,120,125,,125,62.5,65,67.5,,67.5,140,150,-157.5,,150,342.5,SBD,
4,Laura Smith #1,F,40,Raw,F_OR_ABPU,64.4,67.5,110,120,135,,135,45,50,52.5,,52.5,120,130,142.5,150.5,142.5,330,SBD,
5,Sophie Cath,F,27,Raw,F_OR_ABPU,63.2,67.5,110,115,-120,,115,-67.5,67.5,72.5,,72.5,110,115,-117.5,,115,302.5,SBD,
6,Leanne Stokeld,F,39,Raw,F_OR_ABPU,65.9,67.5,90,95,100,,100,57.5,60,-62.5,,60,142.5,-152.5,-155,,142.5,302.5,SBD,
7,Samantha Priestley,F,35,Raw,F_OR_ABPU,66.6,67.5,100,105,-112.5,,105,55,-60,-60,,55,120,127.5,135,,135,295,SBD,
8,Jessica Chater,F,27,Raw,F_OR_ABPU,67.4,67.5,100,107.5,110,,110,52.5,60,62.5,,62.5,122.5,-130,-130,,122.5,295,SBD,
9,Pearl Carr-Ingham,F,26,Raw,F_OR_ABPU,65.6,67.5,92.5,-100,-100,,92.5,47.5,52.5,-55,,52.5,122.5,135,,,135,280,SBD,
1,Carey Mason,F,34,Raw,F_OR_ABPU,72.9,75,130,-140,-140,,130,70,77.5,-82.5,,77.5,190,205.5,-212.5,,205.5,413,SBD,
2,Emma Wilding,F,26,Raw,F_OR_ABPU,73.9,75,95,100,105,,105,70,-72.5,-72.5,,70,135,145,150,,150,325,SBD,
3,Katie Adams #3,F,34,Raw,F_OR_ABPU,72.3,75,107.5,-115,115,,115,45,47.5,50,,50,122.5,135,-140,,135,300,SBD,
4,Jen Harden,F,37,Raw,F_OR_ABPU,74.2,75,97.5,-107.5,-107.5,,97.5,55,60,-65,,60,122.5,130,-142.5,,130,287.5,SBD,
5,Amy Crighton,F,25,Raw,F_OR_ABPU,71.7,75,75,80,85,,85,-55,55,-60,,55,120,-130,130,,130,270,SBD,
1,Edna Ogbee,F,24,Raw,F_OR_ABPU,82.2,82.5,100,110,120,,120,67.5,75,82.5,,82.5,165,185,-200,,185,387.5,SBD,
2,Katie Baxter,F,28,Raw,F_OR_ABPU,82,82.5,120,130,135,,135,70,75,80,,80,130,140,147.5,,147.5,362.5,SBD,
3,Charlotte Bouvey,F,35,Raw,F_OR_ABPU,76.4,82.5,100,105,107.5,,107.5,55,57.5,60,,60,125,130,135,,135,302.5,SBD,
1,Bringsty Edwards,F,32,Raw,F_OR_ABPU,87.8,90,140,150,155,,155,77.5,82.5,87.5,,87.5,160,170,180,,180,422.5,SBD,
2,Georgina Watts,F,29,Raw,F_OR_ABPU,83.4,90,120,130,-135,,130,70,75,-80,,75,135,142.5,-147.5,,142.5,347.5,SBD,
3,Lisa Murgatroyd,F,32,Raw,F_OR_ABPU,86.9,90,125,132.5,140,,140,57.5,62.5,-67.5,,62.5,127.5,137.5,-145,,137.5,340,SBD,
4,Katie McGurk,F,24,Raw,F_OR_ABPU,84.1,90,105,112.5,120,,120,65,70,-75,,70,130,140,-152.5,,140,330,SBD,
5,Charlotte Hughes,F,31,Raw,F_OR_ABPU,89.6,90,110,120,130,,130,47.5,52.5,-57.5,,52.5,115,125,140,,140,322.5,SBD,
1,Andrea Campbell,F,36,Raw,F_OR_ABPU,99.3,100,120,-130,130,,130,70,-75,-75,,70,150,-160,165,,165,365,SBD,
1,Alex Young #2,F,31,Raw,F_OR_ABPU,125.7,110+,175,190,-200,,190,95,102.5,-110,,102.5,155,165,170,,170,462.5,SBD,
2,Emily Gardner #3,F,38,Raw,F_OR_ABPU,113.3,110+,130,140,150,,150,65,-67.5,-67.5,,65,130,140,150,,150,365,SBD,
3,Christina McDermott,F,39,Raw,F_OR_ABPU,125.7,110+,100,107.5,115,,115,77.5,82.5,85,,85,115,122.5,-127.5,,122.5,322.5,SBD,
1,Isabelle Simper,F,16,Raw,F_TR_2_ABPU,48.9,52,95,-100,-100,,95,55,-60,-60,,55,130,140,-145,,140,290,SBD,
1,Courtney Holwell-Russell,F,16,Raw,F_TR_2_ABPU,98.8,100,80,90,100,,100,42.5,-47.5,-47.5,,42.5,130,140,-150,,140,282.5,SBD,
1,Lily Churchyard,F,19,Raw,F_TR_3_ABPU,41.4,44,55,-60,-60,,55,35,40,42.5,,42.5,85,90,95,,95,192.5,SBD,
1,Chardonnay Holwell-Russell,F,18,Raw,F_TR_3_ABPU,73,75,105,112.5,120,,120,50,55,-57.5,,55,130,140,-150,,140,315,SBD,
NS,Adam Gasson,M,41,Raw,M_MR_1_ABPU,,,,,,,,,,,,,,,,,,,SBD,
1,Chun-Kit Kan,M,44,Raw,M_MR_1_ABPU,80.9,82.5,-165,172.5,-182.5,,172.5,105,112.5,-115,,112.5,190,210,222.5,,222.5,507.5,SBD,
2,Neil Keddy,M,44,Raw,M_MR_1_ABPU,81.05,82.5,150,160,-165,,160,120,-130,-130,,120,180,-200,,,180,460,SBD,
1,Ashley Westman,M,40,Raw,M_MR_1_ABPU,88.4,90,-190,190,200,,200,150,-160,160,,160,230,-245,-245,,230,590,SBD,
1,Stephen Wilcox,M,48,Raw,M_MR_2_ABPU,98,100,160,170,-175,,170,130,140,-150,,140,210,222.5,232.5,,232.5,542.5,SBD,
2,Dave Langridge,M,46,Raw,M_MR_2_ABPU,95.3,100,-165,165,-175,,165,115,122.5,-125,,122.5,195,212.5,-220,,212.5,500,SBD,
1,Steven Middleton-Lowes,M,51,Raw,M_MR_3_ABPU,106.9,110,222.5,242.5,252.5,,252.5,152.5,-162.5,,,152.5,150,180,-200,,180,585,SBD,
1,Robert Thornhill,M,50,Raw,M_MR_3_ABPU,128.5,140,160,-170,-170,,160,130,137.5,-145,,137.5,175,185,200,,200,497.5,SBD,
1,John Rushton,M,57,Raw,M_MR_4_ABPU,99.2,100,120,-137.5,137.5,,137.5,80,92.5,95,,95,155,172.5,182.5,,182.5,415,SBD,
1,Mark Johnson #1,M,61,Raw,M_MR_5_ABPU,99.2,100,140,-152.5,-152.5,,140,95,-100,-100,,95,190,-200,-200,,190,425,SBD,
1,Peter Oram,M,68,Raw,M_MR_6_ABPU,92.5,100,-125,125,135,,135,72.5,77.5,82.5,,82.5,190,-205,205,,205,422.5,SBD,
NS,John Morris #3,M,26,Raw,M_OR_ABPU,,,,,,,,,,,,,,,,,,,SBD,
NS,Kyle Haynes #1,M,30,Raw,M_OR_ABPU,,,,,,,,,,,,,,,,,,,SBD,
NS,Reice Lister-Phillips,M,26,Raw,M_OR_ABPU,,,,,,,,,,,,,,,,,,,SBD,
NS,Steven Ryan,M,27,Raw,M_OR_ABPU,,,,,,,,,,,,,,,,,,,SBD,
1,Ed Griffiths,M,30,Raw,M_OR_ABPU,66.4,67.5,172.5,182.5,187.5,,187.5,120,-125,-125,,120,202.5,212.5,220,,220,527.5,SBD,
1,Thomas Regan,M,28,Raw,M_OR_ABPU,74.6,75,172.5,182.5,192.5,,192.5,110,115,-120,,115,230,245,-260,,245,552.5,SBD,
2,James Hodgkiss,M,32,Raw,M_OR_ABPU,72.7,75,190,197.5,-200,,197.5,107.5,112.5,115,,115,200,207.5,-212.5,,207.5,520,SBD,
3,Tom Brindley,M,27,Raw,M_OR_ABPU,74.7,75,135,147.5,-155,,147.5,90,100,-102.5,,100,160,170,175,,175,422.5,SBD,
1,Martin Wilson #1,M,33,Raw,M_OR_ABPU,80.8,82.5,177.5,185,192.5,,192.5,120,125,-127.5,,125,247.5,260,270,,270,587.5,SBD,
2,Chris Maylunn,M,28,Raw,M_OR_ABPU,79.9,82.5,182.5,192.5,-200,,192.5,125,135,-140,,135,210,222.5,227.5,,227.5,555,SBD,
3,James Baldwin #2,M,25,Raw,M_OR_ABPU,81.9,82.5,165,170,172.5,,172.5,125,130,132.5,,132.5,220,-225,-227.5,,220,525,SBD,
1,William Swanwick,M,22,Raw,M_OR_ABPU,89.4,90,192.5,205,210,,210,120,125,130,,130,185,205,210,,210,550,SBD,
2,Jacob Jabbari,M,29,Raw,M_OR_ABPU,86.8,90,160,170,-180,,170,110,117.5,-122.5,,117.5,205,215,220,,220,507.5,SBD,
1,Thomas Manktelow,M,25,Raw,M_OR_ABPU,99.15,100,200,215,225,,225,140,150,-155,,150,260,280,300,,300,675,SBD,
2,Leon Parry,M,30,Raw,M_OR_ABPU,99.9,100,-195,205,215,,215,155,162.5,167.5,,167.5,230,250,-265,,250,632.5,SBD,
3,Callum Pickering,M,30,Raw,M_OR_ABPU,92.2,100,185,197.5,-202.5,,197.5,135,137.5,140,,140,225,235,250,,250,587.5,SBD,
4,Connor Liam-Cooper,M,25,Raw,M_OR_ABPU,96.3,100,187.5,197.5,207.5,,207.5,135,140,145,,145,220,230,235,,235,587.5,SBD,
1,Alex Maynard,M,28,Raw,M_OR_ABPU,108.1,110,225,-245,255,,255,145,155,-160,,155,265,280,-290,,280,690,SBD,
2,Joe Gratton,M,24,Raw,M_OR_ABPU,106.95,110,-210,210,-225,,210,135,145,155,,155,220,-235,235,,235,600,SBD,
3,Alexander Callard,M,30,Raw,M_OR_ABPU,106,110,190,195,-200,,195,130,-135,135,,135,250,257.5,-262.5,,257.5,587.5,SBD,
4,Steven Middleton-Lowes,M,51,Raw,M_OR_ABPU,106.9,110,222.5,242.5,252.5,,252.5,152.5,-162.5,,,152.5,150,180,-200,,180,585,SBD,
1,Ashley Fleuty,M,30,Raw,M_OR_ABPU,135.7,140,190,-200,-200,,190,160,162.5,-167.5,,162.5,250,255,260,,260,612.5,SBD,
2,Dennis O'Shea,M,37,Raw,M_OR_ABPU,139.3,140,180,185,190,,190,142.5,147.5,-152.5,,147.5,232.5,242.5,252.5,,252.5,590,SBD,
1,Frankie Kemp,M,29,Raw,M_OR_ABPU,148.7,140+,257.5,267.5,277.5,,277.5,182.5,190,-197.5,,190,-265,265,-275,,265,732.5,SBD,
NS,Karl Williams,M,42,Wraps,M_MCR_1_ABPU,,,,,,,,,,,,,,,,,,,SBD,
1,Dumas Maugile,M,55,Raw,M_MCR_4_ABPU,82.2,82.5,150,-160,162.5,,162.5,112.5,122.5,130,,130,180,200,210,,210,502.5,SBD,
NS,Mark Slinger,M,33,Wraps,M_OCR_ABPU,,,,,,,,,,,,,,,,,,,SBD,
NS,Nick Hill #1,M,35,Wraps,M_OCR_ABPU,,,,,,,,,,,,,,,,,,,SBD,
NS,Sam Frew,M,25,Wraps,M_OCR_ABPU,,,,,,,,,,,,,,,,,,,SBD,
1,Shane Penfold,M,29,Wraps,M_OCR_ABPU,66.6,67.5,200,-207.5,-210,,200,115,-120,-120,,115,200,212.5,225,,225,540,SBD,
1,Graham Colledge,M,33,Wraps,M_OCR_ABPU,73.3,75,195,-205,-205,,195,122.5,125,-127.5,,125,240,-250,250,,250,570,SBD,
2,Marats Halilovs,M,32,Wraps,M_OCR_ABPU,74.55,75,170,185,200,,200,120,130,-140,,130,220,230,240,,240,570,SBD,
3,Nick Thomas #2,M,32,Raw,M_OCR_ABPU,74.8,75,180,192.5,-200,,192.5,-122.5,122.5,132.5,,132.5,220,232.5,-237.5,,232.5,557.5,SBD,
4,Josh Chamberlaine,M,33,Wraps,M_OCR_ABPU,73.1,75,-200,200,-210,,200,110,115,117.5,,117.5,220,227.5,-232.5,,227.5,545,SBD,
5,Gundo Sithari,M,27,Raw,M_OCR_ABPU,73.6,75,175,192.5,-200,,192.5,90,102.5,105,,105,217.5,230,242.5,,242.5,540,SBD,
6,Jordan Bowring,M,26,Wraps,M_OCR_ABPU,73.5,75,185,195,-202.5,,195,-102.5,107.5,-110,,107.5,210,222.5,-225,,222.5,525,SBD,
7,Zeeshan Naveed,M,25,Wraps,M_OCR_ABPU,69.85,75,170,185,-200,,185,85,-95,-95,,85,190,210,-230,,210,480,SBD,
1,Paul Beattie,M,34,Wraps,M_OCR_ABPU,80.8,82.5,235,255,-272.5,,255,150,160,-167.5,,160,260,280,295,,295,710,SBD,
2,Jose Zozaya Rapallo,M,26,Wraps,M_OCR_ABPU,82.3,82.5,195,205,212.5,,212.5,137.5,147.5,-152.5,,147.5,220,232.5,-237.5,,232.5,592.5,SBD,
3,Steve Dando,M,34,Wraps,M_OCR_ABPU,80.7,82.5,210,220,230,,230,120,127.5,130,,130,210,220,230,,230,590,SBD,
4,Kavan Donaghy,M,26,Wraps,M_OCR_ABPU,79.8,82.5,165,180,190,,190,150,157.5,-165,,157.5,210,225,230,,230,577.5,SBD,
5,Alex Emery,M,30,Wraps,M_OCR_ABPU,80.9,82.5,195,205,210,,210,130,135,-140,,135,217.5,230,-247.5,,230,575,SBD,
6,Piotr Zietal,M,35,Wraps,M_OCR_ABPU,82.4,82.5,210,-217.5,217.5,,217.5,125,130,132.5,,132.5,210,217.5,-222.5,,217.5,567.5,SBD,
7,Sean Brown #2,M,25,Wraps,M_OCR_ABPU,79.5,82.5,187.5,200,207.5,,207.5,130,137.5,-142.5,,137.5,182.5,192.5,200,,200,545,SBD,
NS,Timo Kontio,M,31,Wraps,M_OCR_ABPU,,,,,,,,,,,,,,,,,,,SBD,
DQ,Nick Simpson #1,M,51,Wraps,M_MCR_3_ABPU,99.1,100,,,,,,140,155,170,,170,200,220,230,,230,,SBD,
G,Nick Simpson #1,M,51,Raw,M_MR_3_ABPU,99.1,100,,,,,,140,155,170,,170,,,,,,170,B,
G,Nick Simpson #1,M,51,Raw,M_MR_3_ABPU,99.1,100,,,,,,,,,,,200,220,230,,230,230,D,
NS,Nadeem Mahmood,M,43,Wraps,M_MCR_1_ABPU,,,,,,,,,,,,,,,,,,,SBD,
1,Ross Tizard,M,44,Wraps,M_MCR_1_ABPU,86.8,90,175,185,-190,,185,110,-117.5,117.5,,117.5,210,217.5,225,,225,527.5,SBD,
1,Neil Bustin,M,41,Wraps,M_MCR_1_ABPU,104.7,110,170,180,190,,190,130,135,-140,,135,205,220,230,,230,555,SBD,
1,Chris Farrow,M,40,Wraps,M_MCR_1_ABPU,122,125,232.5,242.5,250,,250,150,160,,,160,210,230,250,,250,660,SBD,
NS,Sean Smithson,M,45,Wraps,M_MCR_2_ABPU,,,,,,,,,,,,,,,,,,,SBD,
1,John Wilcox,M,47,Wraps,M_MCR_2_ABPU,87.6,90,167.5,177.5,-182.5,,177.5,122.5,127.5,-132.5,,127.5,200,212.5,225,,225,530,SBD,
1,Colin Davies,M,48,Raw,M_MCR_2_ABPU,107.2,110,185,195,-205,,195,110,115,-117.5,,115,195,205,212.5,,212.5,522.5,SBD,
1,Mark Lawford,M,48,Wraps,M_MCR_2_ABPU,133,140,225,235,245,,245,180,185,190,,190,230,250,-265,,250,685,SBD,
1,Radoslaw Pakulski,M,46,Wraps,M_MCR_2_ABPU,154.7,140+,255,-280,-280,,255,140,152.5,-160,,152.5,250,275,-295,,275,682.5,SBD,
1,Tom Hunter,M,51,Raw,M_MCR_3_ABPU,96.7,100,-155,160,167.5,,167.5,110,115,-120,,115,170,175,180,,180,462.5,SBD,
NS,Mark Jones #2,M,57,Wraps,M_MCR_4_ABPU,,,,,,,,,,,,,,,,,,,SBD,
1,Richard Kemp,M,62,Raw,M_MCR_5_ABPU,92.8,100,135,145,155,,155,85,95,-100,,95,190,210,,,210,460,SBD,
1,John Dolan #2,M,66,Wraps,M_MCR_6_ABPU,97.8,100,130,-135,135,,135,92.5,-97.5,-97.5,,92.5,150,155,165,,165,392.5,SBD,
1,Rob Todd,M,76,Raw,M_MCR_8_ABPU,98.4,100,105,115,122.5,,122.5,60,70,72.5,,72.5,140,152.5,160,,160,355,SBD,
NS,Ben Friar,M,25,Wraps,M_OCR_ABPU,,,,,,,,,,,,,,,,,,,SBD,
NS,Dan Casson,M,31,Wraps,M_OCR_ABPU,,,,,,,,,,,,,,,,,,,SBD,
NS,Daniel Davies,M,27,Wraps,M_OCR_ABPU,,,,,,,,,,,,,,,,,,,SBD,
NS,Jack Coyne #1,M,31,Wraps,M_OCR_ABPU,,,,,,,,,,,,,,,,,,,SBD,
NS,James Macphie,M,29,Wraps,M_OCR_ABPU,,,,,,,,,,,,,,,,,,,SBD,
NS,Matthew Swift,M,24,Wraps,M_OCR_ABPU,,,,,,,,,,,,,,,,,,,SBD,
NS,Rhys Bennett #2,M,29,Wraps,M_OCR_ABPU,,,,,,,,,,,,,,,,,,,SBD,
NS,Richard Baker #2,M,52,Wraps,M_OCR_ABPU,,,,,,,,,,,,,,,,,,,SBD,
NS,Sean Green #1,M,23,Wraps,M_OCR_ABPU,,,,,,,,,,,,,,,,,,,SBD,
NS,Thomas West #2,M,24,Wraps,M_OCR_ABPU,,,,,,,,,,,,,,,,,,,SBD,
NS,Ves Valchev,M,26,Wraps,M_OCR_ABPU,,,,,,,,,,,,,,,,,,,SBD,
NS,William Harkin,M,36,Wraps,M_OCR_ABPU,,,,,,,,,,,,,,,,,,,SBD,
1,David Eaton,M,33,Wraps,M_OCR_ABPU,89.2,90,230,250,-260,,250,145,-165,-170,,145,250,280,290,,290,685,SBD,
2,Dawid Chrysafis,M,24,Wraps,M_OCR_ABPU,87.2,90,220,235,240,,240,155,160,162.5,,162.5,225,235,242.5,,242.5,645,SBD,
3,Chay Boare,M,36,Wraps,M_OCR_ABPU,87.1,90,245,260,-270,,260,132.5,140,-147.5,,140,227.5,-240,242.5,,242.5,642.5,SBD,
4,Jake Lonsdale,M,27,Raw,M_OCR_ABPU,86,90,230,237.5,-240,,237.5,135,140,-142.5,,140,250,260,-270,,260,637.5,SBD,
5,Robert Clark,M,35,Wraps,M_OCR_ABPU,84.1,90,215,227.5,-235,,227.5,127.5,135,140,,140,225,245,-262.5,,245,612.5,SBD,
6,Scott Webber,M,35,Raw,M_OCR_ABPU,88.6,90,192.5,200,,,200,160,167.5,,,167.5,212.5,220,,,220,587.5,SBD,
7,Alexander Murray-Sykes,M,30,Raw,M_OCR_ABPU,88,90,195,202.5,210,,210,127.5,135,-140,,135,225,240,-242.5,,240,585,SBD,
8,Ben Parkinson #1,M,29,Wraps,M_OCR_ABPU,86.9,90,-190,-200,200,,200,115,120,125,,125,220,235,-250,,235,560,SBD,
1,Cejai Lindsay,M,24,Raw,M_OCR_ABPU,98.6,100,250,265,275,,275,195,-205,205,,205,280,300,-310,,300,780,SBD,
2,Chris Morrow,M,35,Wraps,M_OCR_ABPU,98,100,250,265,277.5,,277.5,135,142.5,145,,145,270,290,295,,295,717.5,SBD,
3,Ben Thornes,M,35,Wraps,M_OCR_ABPU,97.3,100,252.5,265,-275,,265,135,140,145,,145,265,285,-310,,285,695,SBD,
4,Mike Radford,M,28,Wraps,M_OCR_ABPU,99.7,100,235,250,255,,255,135,145,150,,150,250,275,282.5,,282.5,687.5,SBD,
5,James Critchley,M,30,Wraps,M_OCR_ABPU,95.7,100,240,250,260,,260,155,165,167.5,,167.5,240,250,-260,,250,677.5,SBD,
6,Benjamin Jenkins,M,26,Wraps,M_OCR_ABPU,97.3,100,240,260,-270,,260,140,150,-152.5,,150,245,265,-272.5,,265,675,SBD,
7,Jordan Hayes #2,M,24,Wraps,M_OCR_ABPU,97.3,100,225,240,-252.5,,240,140,152.5,-160,,152.5,242.5,260,270,,270,662.5,SBD,
8,Ryan Shaw #2,M,24,Wraps,M_OCR_ABPU,98.7,100,230,245,-255,,245,-120,125,130,,130,230,245,255,,255,630,SBD,
9,Jason Berrington,M,38,Wraps,M_OCR_ABPU,99.8,100,195,205,210,,210,150,155,160,,160,250,-260,,,250,620,SBD,
10,Ryan Cashmore,M,30,Wraps,M_OCR_ABPU,92.6,100,187.5,202.5,210,,210,147.5,155,160,,160,215,235,245,,245,615,SBD,
11,Glenn Merry,M,29,Wraps,M_OCR_ABPU,99.2,100,220,-240,-240,,220,140,-145,-150,,140,230,250,-255,,250,610,SBD,
12,Liam Hughes #2,M,30,Wraps,M_OCR_ABPU,99,100,200,210,220,,220,130,-135,-135,,130,245,255,-262.5,,255,605,SBD,
13,Josh Wright #5,M,26,Wraps,M_OCR_ABPU,97.6,100,205,225,-235,,225,132.5,140,142.5,,142.5,212.5,232.5,-237.5,,232.5,600,SBD,
14,Joab Murphy,M,27,Wraps,M_OCR_ABPU,98.4,100,180,200,212.5,,212.5,130,137.5,142.5,,142.5,220,240,-247.5,,240,595,SBD,
15,Raivis Hofs,M,39,Wraps,M_OCR_ABPU,90.7,100,200,215,230,,230,135,145,152.5,,152.5,210,-237.5,,,210,592.5,SBD,
16,Christopher Hawkes,M,25,Wraps,M_OCR_ABPU,97.8,100,210,222.5,-232.5,,222.5,125,132.5,-137.5,,132.5,205,217.5,225,,225,580,SBD,
17,Andrew Martin,M,36,Raw,M_OCR_ABPU,98.6,100,185,-195,200,,200,130,137.5,140,,140,220,227.5,232.5,,232.5,572.5,SBD,
1,Doug Arnold #1,M,35,Wraps,M_OCR_ABPU,105.5,110,275,-300,310,,310,140,147.5,152.5,,152.5,290,310,327.5,,327.5,790,SBD,
2,William Newton #1,M,36,Wraps,M_OCR_ABPU,108.9,110,260,290,310,,310,170,180,-185,,180,300,-315,,,300,790,SBD,
3,John Marsden #1,M,37,Wraps,M_OCR_ABPU,108.8,110,285,305,-315,,305,165,170,175,,175,260,275,290,,290,770,SBD,
4,Nicholas Georgallides,M,31,Wraps,M_OCR_ABPU,109.4,110,275,-285,285,,285,157.5,165,-170,,165,285,302.5,315,,315,765,SBD,
5,Tawanda Bwerudza,M,29,Wraps,M_OCR_ABPU,102.2,110,280,-300,-300,,280,150,-157.5,,,150,300,320,330,,330,760,SBD,
6,Jordan Iliffe,M,31,Wraps,M_OCR_ABPU,107,110,260,270,-280,,270,150,155,-160,,155,280,300,305,,305,730,SBD,
7,Robert Hunt,M,30,Raw,M_OCR_ABPU,103.9,110,270,280,285,,285,152.5,160,-165,,160,275,-280,,,275,720,SBD,
8,Michael Devine,M,29,Wraps,M_OCR_ABPU,108.2,110,250,265,272.5,,272.5,145,150,-155,,150,265,-277.5,277.5,,277.5,700,SBD,
9,Phillip Allan,M,28,Wraps,M_OCR_ABPU,108.5,110,240,255,-267.5,,255,167.5,180,-187.5,,180,230,240,250,,250,685,SBD,
10,Ben Ashurst,M,29,Wraps,M_OCR_ABPU,106.9,110,225,240,250,,250,132.5,140,142.5,,142.5,220,240,-245,,240,632.5,SBD,
11,Edward Davey,M,25,Wraps,M_OCR_ABPU,107.5,110,200,210,220,,220,160,-170,-180,,160,235,-245,-245,,235,615,SBD,
12,William Webb #1,M,32,Wraps,M_OCR_ABPU,107.5,110,220,237.5,245,,245,110,120,-130,,120,220,240,-250,,240,605,SBD,
13,Casey Dunn #1,M,24,Wraps,M_OCR_ABPU,108.2,110,280,-300,-300,,280,150,157.5,162.5,,162.5,75,,,,75,517.5,SBD,
1,Julian McKerrow,M,32,Wraps,M_OCR_ABPU,123.4,125,250,265,-277.5,,265,150,,,,150,290,,,,290,705,SBD,
2,Angus Craddock,M,31,Raw,M_OCR_ABPU,121.9,125,215,230,,,230,140,150,-152.5,,150,225,242.5,-250,,242.5,622.5,SBD,
3,John Strange,M,37,Wraps,M_OCR_ABPU,120.5,125,235,245,-252.5,,245,107.5,112.5,120,,120,240,250,-260,,250,615,SBD,
1,Mokrane Chir,M,29,Wraps,M_OCR_ABPU,153.5,140+,245,265,270,,270,155,165,170,,170,280,300,-317.5,,300,740,SBD,
NS,Holly Robinson,F,23,Raw,F_JR_ABPU,,,,,,,,,,,,,,,,,,,SBD,
1,Roxy Jeffries,F,19,Raw,F_TCR_3_BPU,72.7,75,110,120,130,,130,60,65,-70,,65,150,160,170,,170,365,SBD,
6,Adam Buckle,M,20,Raw,M_JCR_ABPU,86.4,90,-200,200,205,,205,130,-135,140,,140,210,215,-220,,215,560,SBD,
7,Sebastian Adamatzky,M,22,Raw,M_JCR_ABPU,87.8,90,135,142.5,150,,150,95,-102.5,-102.5,,95,195,205,-217.5,,205,450,SBD,
1,Charlie Dimmock,M,20,Raw,M_JR_ABPU,59.4,60,165,175,180,,180,105,-110,-110,,105,205,215,222.5,,222.5,507.5,SBD,
1,Lewis Wilkinson #1,M,23,Raw,M_JR_ABPU,71.3,75,145,150,-155,,150,95,102.5,-107.5,,102.5,175,185,195,,195,447.5,SBD,
1,Owen Crisp,M,23,Raw,M_JR_ABPU,80.3,82.5,130,140,-145,,140,87.5,92.5,97.5,,97.5,160,177.5,-180,,177.5,415,SBD,
1,Todd Thompstone,M,23,Raw,M_JR_ABPU,89.4,90,155,165,170,,170,110,-115,-115,,110,210,215,-220,,215,495,SBD,
2,Mitchell Challinor,M,22,Raw,M_JR_ABPU,84.1,90,165,172.5,180,,180,97.5,102.5,-110,,102.5,170,185,187.5,,187.5,470,SBD,
1,Alexandru Tudor Ulianov,M,23,Raw,M_JR_ABPU,98.9,100,-200,200,210,,210,140,150,-157.5,,150,245,260,-265,,260,620,SBD,
1,Sam Picknett,M,23,Raw,M_JR_ABPU,108.8,110,160,170,-180,,170,100,105,110,,110,200,210,-220,,210,490,SBD,
1,Mackenzie Baker #2,M,15,Raw,M_TR_1_ABPU,73.5,75,105,115,120,,120,60,65,-70,,65,155,167.5,175,,175,360,SBD,
1,Ty Copeland,M,15,Raw,M_TR_1_ABPU,78.8,82.5,150,160,-172.5,,160,100,110,-112.5,,110,-180,190,-202.5,,190,460,SBD,
NS,Jai Singh-Bahia,M,16,Raw,M_TR_2_ABPU,,,,,,,,,,,,,,,,,,,SBD,
1,Jay Penny,M,19,Raw,M_TR_3_ABPU,81.6,82.5,162.5,172.5,180,,180,105,110,-115,,110,185,-197.5,-197.5,,185,475,SBD,
1,Arichman Perez,M,22,Wraps,M_JCR_BPU,73.1,75,280,290,-300,,290,160,-170,-170,,160,315,-330,-330,,315,765,SBD,
1,William Watson #2,M,22,Raw,M_JCR_BPU,80.5,82.5,180,190,195,,195,117.5,127.5,-132.5,,127.5,210,217.5,-222.5,,217.5,540,SBD,
1,Thomas Carpenter Rich,M,21,Wraps,M_JCR_BPU,93.9,100,230,-250,-255,,230,125,135,-145,,135,-290,310,-317.5,,310,675,SBD,
1,Jack Grose-Freeman,M,23,Wraps,M_JCR_BPU,109.4,110,255,280,290,,290,155,167.5,172.5,,172.5,260,282.5,292.5,,292.5,755,SBD,
2,Cameron Reade,M,23,Wraps,M_JCR_BPU,104.2,110,220,235,245,,245,152.5,165,170,,170,232.5,250,-255,,250,665,SBD,
1,Jack Ramage,M,22,Wraps,M_JCR_BPU,114.2,125,265,280,-300,,280,135,145,150,,150,250,-270,-270,,250,680,SBD,
NS,Gabriel Trych,M,21,Wraps,M_JCR_ABPU,,,,,,,,,,,,,,,,,,,SBD,
NS,Jake Garner #2,M,22,Wraps,M_JCR_ABPU,,,,,,,,,,,,,,,,,,,SBD,
1,Jake Lee,M,21,Wraps,M_JCR_ABPU,74.2,75,185,195,205,,205,135,140,-145,,140,207.5,217.5,-227.5,,217.5,562.5,SBD,
2,Connor Long #2,M,22,Wraps,M_JCR_ABPU,73.8,75,170,182.5,187.5,,187.5,110,117.5,125,,125,190,205,217.5,,217.5,530,SBD,
3,Dylan Evans #1,M,23,Raw,M_JCR_ABPU,73.8,75,160,165,-170,,165,105,-110,110,,110,210,-217.5,-217.5,,210,485,SBD,
1,Dylan Cilliers,M,23,Wraps,M_JCR_ABPU,81.7,82.5,220,230,,,230,130,-140,-140,,130,260,275,-290,,275,635,SBD,
2,Ollie Giblin,M,22,Wraps,M_JCR_ABPU,80.9,82.5,-200,-215,215,,215,110,117.5,122.5,,122.5,220,240,250,,250,587.5,SBD,
3,Kamran Davies,M,23,Raw,M_JCR_ABPU,82.2,82.5,180,-195,-195,,180,137.5,-150,-150,,137.5,237.5,250,260,,260,577.5,SBD,
4,Jordan Lee Thomas,M,20,Wraps,M_JCR_ABPU,80.3,82.5,205,-225,225,,225,125,137.5,-145,,137.5,210,-230,-230,,210,572.5,SBD,
1,Freddie Isherwood,M,22,Raw,M_JCR_ABPU,88.6,90,265,-275,,,265,145,-150,-150,,145,260,280,300,,300,710,SBD,
2,Tyler Elliott #1,M,20,Wraps,M_JCR_ABPU,88.8,90,240,-250,-250,,240,150,157.5,-162.5,,157.5,240,250,-257.5,,250,647.5,SBD,
3,Ahmed Batous,M,21,Wraps,M_JCR_ABPU,84.4,90,210,230,-240,,230,155,162.5,-170,,162.5,210,220,230,,230,622.5,SBD,
4,Kieran Griffith,M,20,Wraps,M_JCR_ABPU,89.6,90,212.5,-225,,,212.5,150,155,160,,160,225,235,-252.5,,235,607.5,SBD,
5,Luke Robinson #3,M,22,Raw,M_JCR_ABPU,88.6,90,200,215,230,,230,115,125,130,,130,210,230,-235,,230,590,SBD,
1,Zac Wareing,M,23,Wraps,M_JCR_ABPU,94,100,225,240,250,,250,155,162.5,-165,,162.5,275,295,307.5,,307.5,720,SBD,
2,Stephen Taylor #1,M,23,Wraps,M_JCR_ABPU,92.1,100,230,-245,250,,250,147.5,155,-160,,155,200,220,-230,,220,625,SBD,
3,Samuel Cary,M,20,Wraps,M_JCR_ABPU,97.4,100,170,185,197.5,,197.5,100,107.5,-112.5,,107.5,200,217.5,-230,,217.5,522.5,SBD,
1,Tyler White #1,M,23,Wraps,M_JCR_ABPU,103.3,110,250,260,-270,,260,130,140,-150,,140,250,260,-262.5,,260,660,SBD,
2,Adam Elalfy,M,21,Raw,M_JCR_ABPU,103,110,205,230,-247.5,,230,145,155,-160,,155,250,-270,272.5,,272.5,657.5,SBD,
3,George Purchase,M,20,Wraps,M_JCR_ABPU,105.2,110,215,225,230,,230,117.5,125,130,,130,215,225,230,,230,590,SBD,
1,Jacob Crook,M,19,Wraps,M_TCR_3_ABPU,116.8,125,225,235,245,,245,135,140,145,,145,230,245,-260,,245,635,SBD,
1,Cameron Morris #2,M,20,Raw,M_JCR_ABPU,121.5,125,200,215,-220,,215,120,127.5,135,,135,205,220,-230,,220,570,SBD,
2,George Buzinchi,M,21,Raw,M_JCR_ABPU,119,125,205,220,-235,,220,97.5,102.5,107.5,,107.5,220,230,240,,240,567.5,SBD,
DQ,Lukas Jusko,M,20,Wraps,M_JCR_ABPU,111.4,125,-290,300,-312.5,,300,135,-142.5,,,135,-270,-270,-270,,,,SBD,
1,Danyal Hussain,M,14,Wraps,M_TCR_1_ABPU,42.8,52,85,93,,,93,40,45,-47.5,,45,95,102.5,107.5,,107.5,245.5,SBD,
1,Gregory Pearson,M,14,Wraps,M_TCR_1_ABPU,67.5,67.5,173,187.5,200,-202.5,200,102.5,110,115,,115,192.5,205.5,215,,215,530,SBD,
2,Louie Wright,M,15,Wraps,M_TCR_1_ABPU,65.6,67.5,185,200,-205,,200,90,97.5,105,,105,200,215.5,-225,,215.5,520.5,SBD,
1,Ben Hammond #2,M,17,Wraps,M_TCR_2_ABPU,73.6,75,190,-200,200,,200,95,105,-107.5,,105,190,205,210,-221,210,515,SBD,
1,Oliver Scott,M,17,Raw,M_TCR_2_ABPU,80.3,82.5,175,197.5,-207.5,,197.5,140,150,-155,,150,200,222.5,-230,,222.5,570,SBD,
2,Leo Hughes,M,16,Wraps,M_TCR_2_ABPU,79.2,82.5,160,172.5,185,,185,72.5,82.5,-90,,82.5,170,-185,185,-201,185,452.5,SBD,
1,Joshua Bullard,M,,Wraps,M_TCR_2_ABPU,89.2,90,225,-235,235,,235,145,150,-152.5,,150,220,242.5,250,,250,635,SBD,
2,Isaac Flint,M,17,Wraps,M_TCR_2_ABPU,86.9,90,185,195,200,,200,110,115,120,,120,212.5,222.5,230,,230,550,SBD,
1,Brandon Lee #10,M,16,Wraps,M_TCR_2_ABPU,113,125,162.5,175,180,,180,120,125,132.5,,132.5,185,200,210,,210,522.5,SBD,
1,Tom Ward #2,M,18,Raw,M_TCR_3_BPU,74.9,75,130,140,145,,145,105,-112.5,112.5,,112.5,180,192.5,205,,205,462.5,SBD,
1,Harry Whitburn,M,19,Wraps,M_TCR_3_BPU,98.2,100,240,-260,270,,270,107.5,117.5,125,,125,245,-267.5,267.5,-283.5,267.5,662.5,SBD,
NS,Charlie Williams #3,M,18,Wraps,M_TCR_3_ABPU,,,,,,,,,,,,,,,,,,,SBD,
NS,Frank Parks,M,19,Wraps,M_TCR_3_ABPU,,,,,,,,,,,,,,,,,,,SBD,
1,Max Cronin,M,18,Wraps,M_TCR_3_ABPU,63.5,67.5,125,135,145,,145,85,90,-95,,90,155,165,-175,,165,400,SBD,
1,Thomas Bennett #1,M,18,Raw,M_TCR_3_ABPU,74.2,75,192.5,205,-212.5,,205,112.5,120,127.5,,127.5,210,220,-230,,220,552.5,SBD,
2,Conlan Davies,M,19,Raw,M_TCR_3_ABPU,73.7,75,175,185,195,,195,110,120,-130,,120,220,-235,-240,,220,535,SBD,
3,Matthew Penney,M,18,Wraps,M_TCR_3_ABPU,73.5,75,150,-165,-165,,150,-90,90,-95,,90,170,180,-190,,180,420,SBD,
1,Zach Smith #18,M,19,Raw,M_TCR_3_ABPU,76.5,82.5,195,202.5,207.5,,207.5,127.5,132.5,-135,,132.5,252.5,265,-275,,265,605,SBD,
1,Conner McCulloch,M,19,Wraps,M_TCR_3_ABPU,87.7,90,225,241,250,-260,250,115,120,122.5,,122.5,200,215,227.5,,227.5,600,SBD,
2,George Goldsmith,M,18,Wraps,M_TCR_3_ABPU,88.4,90,215,230,-242.5,,230,117.5,125,130,,130,200,215,225,,225,585,SBD,
3,Sam Brookes #1,M,19,Wraps,M_TCR_3_ABPU,87.3,90,167.5,175,185,,185,102.5,105,-110,,105,200,212.5,-220,,212.5,502.5,SBD,
1,Luke Tweed,M,19,Wraps,M_TCR_3_ABPU,96.4,100,220,240,-243,,240,130,142.5,-148,,142.5,240,265,278,,278,660.5,SBD,
2,Nathan Fleming #2,M,19,Raw,M_TCR_3_ABPU,93.4,100,170,177.5,185,,185,110,120,-122.5,,120,210,225,235,,235,540,SBD,
1,Josh Beddall,M,19,Wraps,M_TCR_3_ABPU,106.7,110,280,-305,,,280,145,-152.5,-152.5,,145,255,270,-281,,270,695,SBD,
2,Abdel Maamo,M,19,Wraps,M_TCR_3_ABPU,108.1,110,245,262.5,-272.5,,262.5,132.5,145,150,,150,220,240,250,,250,662.5,SBD,
1,Emerson Reddy,M,19,Wraps,M_TCR_3_ABPU,130.6,140,225,237.5,-242.5,,237.5,-105,110,-120,,110,205,215,-227.5,,215,562.5,SBD,
2,Brandon Jackson #1,M,19,Wraps,M_TCR_3_ABPU,130.6,140,260,270,-275,,270,105,110,117.5,,117.5,165,170,-177.5,,170,557.5,SBD,
1,Chris Lane #1,M,40,Wraps,M_MCR_1_BPU,97.7,100,225,-235,,,225,162.5,170,-180,,170,250,260,-285,,260,655,SBD,
1,Joe Martin #1,M,43,Wraps,M_MCR_1_BPU,109.4,110,285,-305,305,,305,190,-200,200,,200,285,305,320,,320,825,SBD,
1,Neil Hawkins,M,42,Wraps,M_MCR_1_BPU,120.9,125,-250,250,-260,,250,140,150,157.5,,157.5,240,260,280,,280,687.5,SBD,
DQ,Andrzej Roszkowski,M,41,Wraps,M_MCR_1_BPU,117.1,125,335,-365,,,335,-232.5,-252.5,,,,,,,,,,SBD,
1,Lee Smith #9,M,45,Wraps,M_MCR_2_BPU,87.6,90,175,192.5,205,,205,120,130,135,,135,195,212.5,227.5,,227.5,567.5,SBD,
1,Tommy Cuff,M,47,Wraps,M_MCR_2_BPU,108.8,110,190,200,205,,205,132.5,140,145,,145,225,-240,,,225,575,SBD,
1,Matthew Mayes,M,49,Wraps,M_MCR_2_BPU,122.5,125,280,300,320,,320,180,205,-215,,205,280,300,-317.5,,300,825,SBD,
NS,Michael Fedarb,M,52,Wraps,M_MCR_3_BPU,,,,,,,,,,,,,,,,,,,SBD,
1,Jeremy Cope,M,54,Wraps,M_MCR_3_BPU,89.5,90,235,250,-265,,250,145,152.5,-160,,152.5,240,260,-270,,260,662.5,SBD,
1,Paul Johnson #1,M,52,Wraps,M_MCR_3_BPU,96.8,100,210,225,235,,235,105,115,120,,120,205,225,232.5,,232.5,587.5,SBD,
1,Jason Swalwell,M,50,Wraps,M_MCR_3_BPU,119.5,125,220,235,,,235,172.5,177.5,182.5,,182.5,275,290,-305,,290,707.5,SBD,
NS,George Doneathy,M,55,Wraps,M_MCR_4_BPU,,,,,,,,,,,,,,,,,,,SBD,
1,Stephen Davies #1,M,56,Wraps,M_MCR_4_BPU,105.4,110,205,220,-235,,220,125,137.5,142.5,,142.5,210,225,240,,240,602.5,SBD,
1,Michael Hawkins #1,M,60,Wraps,M_MCR_5_BPU,88.9,90,160,170,180,,180,100,105,110,,110,160,170,180,,180,470,SBD,
NS,Aamar Mahmood,M,34,Wraps,M_OCR_BPU,,,,,,,,,,,,,,,,,,,SBD,
NS,James Matthews-Williams,M,31,Wraps,M_OCR_BPU,,,,,,,,,,,,,,,,,,,SBD,
NS,Joe Ferguson,M,22,Wraps,M_OCR_BPU,,,,,,,,,,,,,,,,,,,SBD,
NS,Neil Basley,M,38,Wraps,M_OCR_BPU,,,,,,,,,,,,,,,,,,,SBD,
1,Nathan Bage,M,30,Wraps,M_OCR_BPU,67.6,75,220,240,-250,,240,140,150,157.5,,157.5,220,237.5,247.5,,247.5,645,SBD,
2,Aodhan Phillips-Lees,M,29,Wraps,M_OCR_BPU,72.5,75,225,240,250,,250,135,145,150,,150,220,235,245,,245,645,SBD,
3,Leigh Edwards,M,28,Wraps,M_OCR_BPU,73.7,75,-230,-245,245,,245,-130,130,-142.5,,130,200,-220,-220,,200,575,SBD,
1,Alireza Herfedoust,M,35,Wraps,M_OCR_BPU,79.7,82.5,275,-290,-290,,275,135,145,,,145,250,270,282.5,,282.5,702.5,SBD,
2,Will Bennetts,M,26,Wraps,M_OCR_BPU,81.7,82.5,225,242.5,250,,250,135,142.5,-147.5,,142.5,230,262.5,-275,,262.5,655,SBD,
1,Ignacio Badiola,M,32,Raw,M_OCR_BPU,88.9,90,242.5,260,-265,,260,165,177.5,185,,185,247.5,265,272.5,,272.5,717.5,SBD,
2,Otis Dixon,M,26,Wraps,M_OCR_BPU,87.5,90,220,230,-242.5,,230,140,145,-147.5,,145,235,250,-255,,250,625,SBD,
3,Daniel Routledge,M,27,Raw,M_OCR_BPU,89.3,90,210,222.5,232.5,,232.5,120,127.5,-132.5,,127.5,-240,252.5,-262.5,,252.5,612.5,SBD,
1,Wylie Sung,M,34,Wraps,M_OCR_BPU,99.3,100,300,322.5,335,,335,177.5,187.5,192.5,,192.5,300,330,352.5,,352.5,880,SBD,
2,Reece Meakin,M,31,Wraps,M_OCR_BPU,99.4,100,295,320,335,,335,205,215,220,,220,290,315,325,,325,880,SBD,
3,Harry Cartwright,M,27,Wraps,M_OCR_BPU,100,100,300,315,325,,325,185,-192.5,-192.5,,185,300,-315,,,300,810,SBD,
4,Jon May,M,31,Wraps,M_OCR_BPU,98.5,100,270,285,300,,300,165,175,-182.5,,175,280,300,312.5,,312.5,787.5,SBD,
5,Alexander Gurton,M,26,Wraps,M_OCR_BPU,98.9,100,280,-320,-320,,280,140,,,,140,280,300,-315,,300,720,SBD,
6,Philip Devlin,M,29,Wraps,M_OCR_BPU,98.7,100,232.5,-250,-250,,232.5,182.5,190,195,,195,272.5,285,-300,,285,712.5,SBD,
7,Jakub Szanweder,M,27,Wraps,M_OCR_BPU,99.2,100,245,-265,265,,265,150,162.5,172.5,,172.5,260,275,-290,,275,712.5,SBD,
8,Stuart Barker,M,38,Wraps,M_OCR_BPU,96.8,100,250,260,275,,275,150,160,170,,170,240,255,-270,,255,700,SBD,
9,Richard Ingham,M,31,Wraps,M_OCR_BPU,98.2,100,255,265,275,,275,160,-170,-170,,160,245,265,-272.5,,265,700,SBD,
10,Tom Copeland,M,35,Wraps,M_OCR_BPU,99.1,100,275,-290,-290,,275,165,172.5,-177.5,,172.5,245,-265,-265,,245,692.5,SBD,
1,Sam Hinks,M,28,Raw,M_OCR_BPU,109,110,290,305,310,,310,200,-215,220,,220,310,335,-340,,335,865,SBD,
2,Christopher Park,M,25,Wraps,M_OCR_BPU,109.7,110,270,285,295,,295,150,157.5,160,,160,300,315,322.5,,322.5,777.5,SBD,
3,Marcus Collins #1,M,24,Wraps,M_OCR_BPU,106.4,110,305,317.5,,,317.5,175,185,192.5,,192.5,265,,,,265,775,SBD,
4,Matthew Lynch #6,M,25,Raw,M_OCR_BPU,108.5,110,240,245,250,,250,165,175,180,,180,300,-317.5,,,300,730,SBD,
5,James Crosbie,M,39,Wraps,M_OCR_BPU,107.1,110,240,250,260,,260,150,157.5,162.5,,162.5,275,290,300,,300,722.5,SBD,
6,Liam Griffiths,M,33,Wraps,M_OCR_BPU,104,110,240,265,280,,280,160,167.5,-172.5,,167.5,237.5,257.5,270,,270,717.5,SBD,
7,Conor Neilly,M,30,Wraps,M_OCR_BPU,106.8,110,250,265,275,,275,145,155,-162.5,,155,280,-300,-300,,280,710,SBD,
8,Aaron Vine,M,29,Wraps,M_OCR_BPU,107.3,110,225,245,-252.5,,245,167.5,175,182.5,,182.5,250,272.5,-280,,272.5,700,SBD,
9,Cian Fulham,M,25,Wraps,M_OCR_BPU,107.8,110,240,255,272.5,,272.5,145,152.5,-160,,152.5,240,255,275,,275,700,SBD,
DQ,Harrison Fleetwood,M,32,Wraps,M_OCR_BPU,106.7,110,280,302.5,310,,310,-170,-177.5,-177.5,,,255,280,-300,,280,,SBD,
DQ,Craig Marshall,M,32,Wraps,M_OCR_BPU,109.5,110,-300,300,-310,,300,190,-195,,,190,-240,-240,-242.5,,,,SBD,
1,David Onyeme,M,29,Wraps,M_OCR_BPU,124.3,125,325,-335,-335,,325,-190,190,-200,,190,330,350,-360,,350,865,SBD,
2,William Jones #1,M,25,Wraps,M_OCR_BPU,122.4,125,270,290,302.5,,302.5,180,190,200,,200,305,325,340,,340,842.5,SBD,
3,Rhys Browning,M,32,Wraps,M_OCR_BPU,116,125,310,,,,310,180,190,,,190,320,340,-352.5,,340,840,SBD,
4,Marek Jedynak,M,28,Wraps,M_OCR_BPU,124.1,125,270,290,-305,,290,160,180,-192.5,,180,260,280,-300,,280,750,SBD,
DQ,Andrzej Roszkowski,M,41,Wraps,M_OCR_BPU,117.1,125,335,-365,,,335,-232.5,-252.5,,,,,,,,,,SBD,
1,Jordan Bunting,M,25,Wraps,M_OCR_BPU,130.4,140,300,320,330,,330,185,195,200,,200,295,310,320,,320,850,SBD,
2,Robin Morley,M,38,Raw,M_OCR_BPU,134.6,140,280,300,310,,310,170,182.5,190,,190,300,320,330,,330,830,SBD,
3,Liam Irons-Mclean,M,26,Wraps,M_OCR_BPU,134.7,140,280,305,-327.5,,305,185,195,202.5,,202.5,255,280,-300,,280,787.5,SBD,
4,Nathan West,M,33,Wraps,M_OCR_BPU,130,140,240,260,-280,,260,140,152.5,160,,160,260,285,-300,,285,705,SBD,
1,Frank Rodriguez #1,M,39,Raw,M_OCR_BPU,146.5,140+,280,310,330,,330,200,220,-225,,220,300,330,350,,350,900,SBD,
2,Dekwan Elfizgha,M,28,Wraps,M_OCR_BPU,159,140+,342.5,365,,,365,190,-200,200,,200,280,,,,280,845,SBD,
3,Marcus Shave,M,24,Wraps,M_OCR_BPU,144,140+,300,-320,322.5,,322.5,160,165,170,,170,270,290,300,,300,792.5,SBD,
DQ,Jacek Toczydlowski,M,40,Wraps,M_MCR_1_BPU,107.1,110,,,,,,165,175,-182.5,,175,,,,,,,SBD,
G,Jacek Toczydlowski,M,40,Raw,M_MR_1_BPU,107.1,110,,,,,,165,175,-182.5,,175,,,,,,175,B,
G,Harrison Fleetwood,M,32,Raw,M_OR_BPU,106.7,110,,,,,,,,,,,255,280,-300,,280,280,D,
1,Ellie Parish,F,22,Raw,F_JR_BPU,98.7,100,127.5,137.5,142.5,,142.5,75,82.5,90,,90,145,157.5,165,,165,397.5,SBD,
1,Kerry Jones,F,35,Raw,F_OR_BPU,88.9,90,100,,,,100,70,-100,,,70,140,160,,,160,330,SBD,
1,Lucy McDonald,F,23,Wraps,F_JCR_BPU,66.1,67.5,176,190,195,,195,87.5,97.5,-102.5,,97.5,175,-195,-195,,175,467.5,SBD,
1,Kelly Morgan #2,F,41,Wraps,F_MCR_1_BPU,65.8,67.5,160,-170,-170,,160,80,85,-87.5,,85,160,-170,-170,,160,405,SBD,
1,Sherie Reed,F,42,Wraps,F_MCR_1_BPU,86.5,90,102.5,,,,102.5,62.5,72.5,80,,80,115,130,-140,,130,312.5,SBD,
NS,Sue Davies,F,53,Wraps,F_MCR_3_BPU,,,,,,,,,,,,,,,,,,,SBD,
1,Daniella Scozzi,F,53,Wraps,F_MCR_3_BPU,65.6,67.5,135,150,-160,,150,77.5,80,,,80,145,155,160,,160,390,SBD,
NS,Natalie O'Shea,F,35,Wraps,F_OCR_BPU,,,,,,,,,,,,,,,,,,,SBD,
1,Nicola Corbett,F,30,Wraps,F_OCR_BPU,57.4,60,-150,150,157.5,,157.5,75,80,-85,,80,175,-185,-185,,175,412.5,SBD,
1,Sharon Eggleton,F,42,Wraps,F_OCR_BPU,67.1,67.5,195,205,215,,215,135,140,145,,145,210,220,-230,,220,580,SBD,
2,Kimber-Lee Hicks,F,33,Wraps,F_OCR_BPU,67.2,67.5,180,195,205,,205,90,-100,-100,,90,190,205,-210,,205,500,SBD,
3,Theresa Cesnik,F,32,Wraps,F_OCR_BPU,66.7,67.5,160,170,180,,180,110,115,122.5,,122.5,185,-192.5,,,185,487.5,SBD,
4,Elaine Yu,F,36,Wraps,F_OCR_BPU,66.4,67.5,105,115,125,,125,70,-75,75,,75,135,145,150,,150,350,SBD,
1,Helen Harrison,F,34,Wraps,F_OCR_BPU,81.9,82.5,170,-180,-180,,170,95,-100,-100,,95,-200,200,205,,205,470,SBD,
1,Erin Gibson,F,31,Wraps,F_OCR_BPU,88.4,90,220,230,240,250,240,80,87.5,95,,95,200,215,-230.5,,215,550,SBD,
2,Catherine Croydon,F,31,Wraps,F_OCR_BPU,89.7,90,150,160,170,,170,151,157.5,162.5,,162.5,150,170,187.5,,187.5,520,SBD,
3,Inese Jaunpaule,F,33,Raw,F_OCR_BPU,89,90,175,-185,185,,185,115,120,-122.5,,120,180,192.5,200,,200,505,SBD,
1,Sarah Wells #3,F,39,Wraps,F_OCR_BPU,106.5,110,120,140,155,,155,67.5,72.5,80,,80,155,170,182.5,,182.5,417.5,SBD,
NS,Allison Hough,F,56,Single-ply,F_MES_4_ABPU,,,,,,,,,,,,,,,,,,,SBD,
1,Amanda Hillary,F,35,Single-ply,F_OES_ABPU,74.1,75,-200,200,215,-227.5,215,100,105,-107.5,,105,150,160,-167.5,,160,480,SBD,
DQ,Gemma Wright,F,29,Single-ply,F_OES_ABPU,82,82.5,-225,-225,-225,,,-115,115,-120,,115,165,170,-180,,170,,SBD,
1,Julia Mills,F,43,Multi-ply,F_MEM_1_BPU,79.2,82.5,240,260,272.5,,272.5,-150,150,160,,160,230,-251,-251,,230,662.5,SBD,
1,Jodie Davies,F,26,Multi-ply,F_OEM_ABPU,47.3,48,-145,145,-160,,145,100,-105,-105,,100,120,127.5,132.5,,132.5,377.5,SBD,
NS,Chris Marshall #2,M,43,Raw,M_MR_1_BPU,,,,,,,,,,,,,,,,,,,SBD,
1,Gareth James,M,42,Raw,M_MR_1_BPU,93,100,170,180,190,,190,115,122.5,-130,,122.5,247.5,-255,,,247.5,560,SBD,
1,Jason Maker,M,47,Raw,M_MR_2_BPU,88,90,170,185,190,,190,130,140,-152.5,,140,220,240,-250,,240,570,SBD,
2,Darryl Triance,M,46,Raw,M_MR_2_BPU,88.8,90,205,-220.5,-220.5,,205,110,120,127.5,,127.5,75,,,,75,407.5,SBD,
1,Tom Mcmutrie,M,55,Raw,M_MR_4_BPU,120.9,125,205,225,232.5,,232.5,145,155,165,,165,260,277.5,287.5,,287.5,685,SBD,
NS,Lee Friel,M,33,Raw,M_OR_BPU,,,,,,,,,,,,,,,,,,,SBD,
NS,Stephen Fraher,M,36,Raw,M_OR_BPU,,,,,,,,,,,,,,,,,,,SBD,
1,Lukas Solak,M,26,Raw,M_OR_BPU,73.3,75,180,195,200,,200,110,125,130,,130,210,220,-230,,220,550,SBD,
1,Matthew Jackson #4,M,30,Raw,M_OR_BPU,88.8,90,220,235,242.5,,242.5,160,165,172.5,,172.5,-255,270,280,,280,695,SBD,
2,Ali Hasanzade,M,31,Raw,M_OR_BPU,88.4,90,205,215,,,215,-142.5,152.5,-160,,152.5,160,200,240,,240,607.5,SBD,
3,Jordan Leader,M,32,Raw,M_OR_BPU,88.3,90,140,170,-180,,170,120,132.5,-140,,132.5,160,200,240,,240,542.5,SBD,
4,Darryl Triance,M,46,Raw,M_OR_BPU,88.8,90,205,-220.5,-220.5,,205,110,120,127.5,,127.5,75,,,,75,407.5,SBD,
1,Russell Orme,M,33,Raw,M_OR_BPU,105.1,110,240,252.5,-260,,252.5,170,177.5,-182.5,,177.5,-290,290,-305,,290,720,SBD,
1,Tom Mcmutrie,M,55,Raw,M_OR_BPU,120.9,125,205,225,232.5,,232.5,145,155,165,,165,260,277.5,287.5,,287.5,685,SBD,
2,Michael Webster,M,31,Raw,M_OR_BPU,117.7,125,220,235,-245,,235,130,140,-150,,140,220,240,260,,260,635,SBD,
NS,Daniel Purcell,M,33,Wraps,M_OCR_BPU,,,,,,,,,,,,,,,,,,,SBD,
NS,Sean Power,M,18,Wraps,M_TCR_3_ABPU,,,,,,,,,,,,,,,,,,,SBD,
1,George Hurt,M,23,Single-ply,M_JES_BPU,120,125,335,-360,365,,365,240,250,-260,,250,300,315,330,,330,945,SBD,
1,Adrian Phillips,M,58,Single-ply,M_MES_4_ABPU,104.8,110,212.5,222.5,230,,230,-155,155,-160,,155,220,230,-240,,230,615,SBD,
2,Mark Moss,M,59,Single-ply,M_MES_4_ABPU,101.8,110,160,180,200,,200,130,-150,-157.5,,130,160,175,-195,,175,505,SBD,
1,Bavwinder Singh,M,65,Single-ply,M_MES_6_ABPU,79.9,82.5,240,260,-270,,260,80,85,,,85,230,,,,230,575,SBD,
1,Daniel Shearly,M,39,Single-ply,M_OES_BPU,81,82.5,220,240,-250,,240,175,185,190,,190,240,250,-265,,250,680,SBD,
1,John Walsh #1,M,26,Single-ply,M_OES_BPU,95.7,100,270,300,310,,310,200,-230,,,200,260,300,,,300,810,SBD,
1,Dewi Evans,M,37,Single-ply,M_OES_ABPU,81.6,82.5,210,220,-240,,220,135,-145,-145,,135,225,240,-250,,240,595,SBD,
1,Ian Williams #1,M,29,Single-ply,M_OES_ABPU,86.2,90,275,-292.5,292.5,,292.5,175,187.5,-192.5,,187.5,260,272.5,-287.5,,272.5,752.5,SBD,
1,Daniel Whittall,M,28,Single-ply,M_OES_ABPU,98.1,100,100,,,,100,100,,,,100,100,,,,100,300,SBD,
1,Marcus Stoker,M,26,Single-ply,M_OES_ABPU,121.9,125,270,,,,270,130,-190,-190,,130,260,302.5,-312.5,,302.5,702.5,SBD,
1,Gregory Pearson,M,14,Single-ply,M_TES_1_ABPU,67.3,67.5,185,200,215,,215,115,125,135,,135,200,220,235,,235,585,SBD,
1,Aaron Hosking,M,38,Multi-ply,M_OEM_BPU,128.5,140,200,,,,200,240,310,,,310,200,,,,200,710,SBD,
1,Tom Gee #1,M,38,Multi-ply,M_OEM_ABPU,97.9,100,295,312.5,325,,325,197.5,207.5,212.5,,212.5,235,250,262.5,,262.5,800,SBD,
1,Edward Holt,M,27,Multi-ply,M_OEM_ABPU,119,125,310,330,,,330,220,,,,220,250,285,,,285,835,SBD,
DQ,James Godber,M,36,Single-ply,M_OES_BPU,135,140,,,,,,255,275,-287.5,,275,,,,,,,SBD,
G,James Godber,M,36,Single-ply,M_OES_BPU,135,140,,,,,,255,275,-287.5,,275,,,,,,275,B,
NS,Andy Burroughs,F,39,Wraps,F_OCR_ABPU,,,,,,,,,,,,,,,,,,,SBD,
NS,Carly Dalton,F,26,Wraps,F_OCR_ABPU,,,,,,,,,,,,,,,,,,,SBD,
NS,Jodie-Lee Price,F,31,Wraps,F_OCR_ABPU,,,,,,,,,,,,,,,,,,,SBD,
NS,Samantha Crebo,F,26,Wraps,F_OCR_ABPU,,,,,,,,,,,,,,,,,,,SBD,
NS,Sylwia Pandzierska,F,28,Wraps,F_OCR_ABPU,,,,,,,,,,,,,,,,,,,SBD,
NS,Vicky Norey,F,29,Wraps,F_OCR_ABPU,,,,,,,,,,,,,,,,,,,SBD,
1,Adele Irving,F,37,Wraps,F_OCR_ABPU,47,48,105,112.5,117.5,,117.5,50,-55,-55,,50,115,120,125,,125,292.5,SBD,
1,Esther Rimmer,F,35,Wraps,F_OCR_ABPU,49.6,52,132.5,137.5,-142.5,,137.5,62.5,67.5,-70,,67.5,137.5,-145,150,,150,355,SBD,
2,Lamorna Bardwell,F,26,Wraps,F_OCR_ABPU,49.3,52,125,130,-135,,130,65,67.5,70,,70,140,150,-155,,150,350,SBD,
3,Lynn Wright,F,32,Wraps,F_OCR_ABPU,51.6,52,112.5,120,125,,125,50,52.5,-55,,52.5,135,142.5,147.5,,147.5,325,SBD,
1,Alice Higgins,F,26,Wraps,F_OCR_ABPU,54.7,56,135,142.5,147.5,,147.5,60,65,-67.5,,65,135,142.5,-145,,142.5,355,SBD,
2,Charlotte Viccars,F,26,Wraps,F_OCR_ABPU,54.9,56,122.5,130,137.5,,137.5,67.5,72.5,-75,,72.5,120,127.5,-132.5,,127.5,337.5,SBD,
3,Megan Huggins,F,25,Wraps,F_OCR_ABPU,55.2,56,95,105,107.5,,107.5,52.5,57.5,62.5,,62.5,110,122.5,130,,130,300,SBD,
4,Mira Taylor,F,39,Wraps,F_OCR_ABPU,55,56,-92.5,97.5,-102.5,,97.5,45,-50,50,,50,112.5,120,127.5,,127.5,275,SBD,
5,Hanieh Lajevardi,F,34,Wraps,F_OCR_ABPU,55.2,56,92.5,-105,105,,105,42.5,47.5,-50,,47.5,105,-115,-117.5,,105,257.5,SBD,
1,Natasha Bacciarelli,F,29,Wraps,F_OCR_ABPU,59.7,60,147.5,152.5,157.5,,157.5,67.5,72.5,75,,75,145,152.5,155,,155,387.5,SBD,
2,Amy Standerwick,F,27,Wraps,F_OCR_ABPU,58.9,60,-145,145,-150,,145,70,-75,-75,,70,150,-157.5,-157.5,,150,365,SBD,
3,Ewa Lewandowska,F,33,Wraps,F_OCR_ABPU,57.8,60,-142.5,142.5,-147.5,,142.5,-67.5,67.5,-70,,67.5,140,150,-155,,150,360,SBD,
4,Katie Lane,F,33,Wraps,F_OCR_ABPU,59.6,60,110,120,-127.5,,120,52.5,57.5,60,,60,155,-165,165,,165,345,SBD,
5,Shannon Mcgarry,F,33,Wraps,F_OCR_ABPU,59.3,60,125,135,142.5,,142.5,50,55,-60,,55,130,135,142.5,,142.5,340,SBD,
1,Aleksandra Urbaniak,F,35,Wraps,F_OCR_ABPU,66.9,67.5,135,150,160,,160,75,80,85,,85,140,155,165,,165,410,SBD,
2,Jessica Clark,F,26,Wraps,F_OCR_ABPU,65.7,67.5,160,165,-170,,165,-70,72.5,-75,,72.5,165,170,-175,,170,407.5,SBD,
3,Beth Lavis,F,26,Wraps,F_OCR_ABPU,65.7,67.5,150,-157.5,157.5,,157.5,80,82.5,-85,,82.5,155,160,-165,,160,400,SBD,
4,Paula Edwards,F,29,Wraps,F_OCR_ABPU,64,67.5,150,160,-165,,160,67.5,72.5,-75,,72.5,150,160,-165,,160,392.5,SBD,
5,Kate Quinn #2,F,33,Wraps,F_OCR_ABPU,65.8,67.5,135,142.5,150,,150,77.5,-82.5,-85,,77.5,140,152.5,160,,160,387.5,SBD,
6,Natalie Brook,F,34,Wraps,F_OCR_ABPU,66.4,67.5,130,142.5,-145,,142.5,65,70,-72.5,,70,135,142.5,-145,,142.5,355,SBD,
7,Mariah Banton,F,24,Wraps,F_OCR_ABPU,66,67.5,120,130,-140,,130,60,65,-70,,65,145,155,-160,,155,350,SBD,
8,Amy Bolton,F,29,Wraps,F_OCR_ABPU,66.4,67.5,130,135,-140,,135,-60,60,65,,65,137.5,145,-150,,145,345,SBD,
9,Tara Covell,F,31,Wraps,F_OCR_ABPU,66.6,67.5,115,122.5,125,,125,70,75,-80,,75,130,135,-137.5,,135,335,SBD,
10,Kate Errington,F,30,Raw,F_OCR_ABPU,64.5,67.5,115,-122.5,-122.5,,115,65,67.5,-70,,67.5,130,-140,145,,145,327.5,SBD,
11,Emma Peters,F,24,Wraps,F_OCR_ABPU,65.6,67.5,110,120,-130,,120,75,80,-85,,80,110,117.5,122.5,,122.5,322.5,SBD,
12,Emily Knox,F,24,Wraps,F_OCR_ABPU,64.5,67.5,120,125,-130,,125,55,60,-62.5,,60,125,135,-140,,135,320,SBD,
13,Kirsty Allen,F,38,Wraps,F_OCR_ABPU,66.8,67.5,122.5,-127.5,127.5,,127.5,65,-67.5,-67.5,,65,120,125,-130,,125,317.5,SBD,
14,Courtney Richards,F,31,Wraps,F_OCR_ABPU,67.1,67.5,122.5,127.5,132.5,,132.5,55,-60,-60,,55,125,130,-135,,130,317.5,SBD,
15,Lindsay McGuire #2,F,37,Wraps,F_OCR_ABPU,66.6,67.5,95,105,110,,110,50,55,-57.5,,55,135,145,-150,,145,310,SBD,
16,Aimee Paterson,F,28,Wraps,F_OCR_ABPU,66.4,67.5,95,105,110,,110,52.5,57.5,60,,60,120,130,-140,,130,300,SBD,
17,Rebekah Rothwell,F,24,Wraps,F_OCR_ABPU,65,67.5,95,102.5,-107.5,,102.5,52.5,57.5,60,,60,105,112.5,120,,120,282.5,SBD,
1,Pamela Fellows,F,33,Wraps,F_OCR_ABPU,73.2,75,157.5,167.5,175,,175,82.5,-87.5,-87.5,,82.5,175,185,-193,,185,442.5,SBD,
2,Nicola Burroughs,F,39,Wraps,F_OCR_ABPU,73.7,75,150,155,160,,160,77.5,82.5,85,,85,160,165,-177.5,,165,410,SBD,
3,Carolyn Coates,F,24,Wraps,F_OCR_ABPU,74,75,145,160,170,,170,67.5,72.5,75,,75,162.5,-172.5,-172.5,,162.5,407.5,SBD,
4,Katie Rourke,F,27,Wraps,F_OCR_ABPU,74.9,75,160,170,180,,180,77.5,-82.5,82.5,,82.5,135,145,-160,,145,407.5,SBD,
5,Sara Bradley,F,35,Wraps,F_OCR_ABPU,72.6,75,140,152.5,160,,160,72.5,77.5,-80,,77.5,145,155,-162.5,,155,392.5,SBD,
6,Paula Zaradkiewicz,F,34,Wraps,F_OCR_ABPU,72.5,75,130,145,157.5,,157.5,57.5,62.5,65,,65,150,165,-170,,165,387.5,SBD,
7,Jessica Pallot,F,26,Wraps,F_OCR_ABPU,72.7,75,127.5,137.5,145,,145,72.5,77.5,-82.5,,77.5,135,145,-155,,145,367.5,SBD,
8,Esther Howe,F,25,Wraps,F_OCR_ABPU,73.3,75,120,127.5,-132.5,,127.5,72.5,77.5,-80,,77.5,125,135,140,,140,345,SBD,
9,Ashleigh Hartnell,F,26,Wraps,F_OCR_ABPU,72.7,75,132.5,137.5,-140,,137.5,57.5,60,-62.5,,60,140,-145,145,,145,342.5,SBD,
10,Clara Sandelind,F,35,Wraps,F_OCR_ABPU,70.1,75,100,107.5,112.5,,112.5,57.5,60,62.5,,62.5,137.5,147.5,152.5,,152.5,327.5,SBD,
11,Zoe Orriss,F,33,Wraps,F_OCR_ABPU,74.4,75,110,115,120,,120,-72.5,72.5,-77.5,,72.5,135,-140,-140,,135,327.5,SBD,
1,Learna Lee,F,36,Wraps,F_OCR_ABPU,82.5,82.5,180,185,190,,190,87.5,92.5,97.5,,97.5,175,-185,-185,,175,462.5,SBD,
2,Kerry Gallagher,F,32,Wraps,F_OCR_ABPU,81.9,82.5,165,-172.5,172.5,,172.5,72.5,75,80,,80,155,162.5,167.5,,167.5,420,SBD,
3,Lynzi Shepherd,F,34,Wraps,F_OCR_ABPU,77.7,82.5,140,150,157.5,,157.5,65,67.5,70,,70,152.5,160,-165,,160,387.5,SBD,
1,Katie Edwards #3,F,34,Wraps,F_OCR_ABPU,88.9,90,167.5,177.5,182.5,,182.5,90,92.5,-95,,92.5,-185,-185,185,,185,460,SBD,
2,Emily Allan,F,31,Wraps,F_OCR_ABPU,88.1,90,155,165,170,,170,72.5,-77.5,77.5,,77.5,165,175,-180,,175,422.5,SBD,
1,Lana Dolan-Rathmell,F,28,Wraps,F_OCR_ABPU,99.9,100,130,137.5,147.5,,147.5,70,77.5,85,,85,160,167.5,177.5,,177.5,410,SBD,
DQ,Jodi Walsh,F,30,Wraps,F_OCR_ABPU,106.8,110,-155,,,,,,,,,,,,,,,,SBD,
NS,Holly McDonagh,F,20,Wraps,F_JCR_ABPU,,,,,,,,,,,,,,,,,,,SBD,
1,Holly Hitchins,F,22,Wraps,F_JCR_ABPU,46.2,48,100,107.5,112.5,,112.5,52.5,57.5,60,62.5,60,105,112.5,117.5,,117.5,290,SBD,
1,Ellen Fitzgibbons,F,22,Wraps,F_JCR_ABPU,50.1,52,-115,115,120,122.5,120,67.5,70,-72.5,,70,115,120,125,,125,315,SBD,
1,Lily Coward,F,20,Raw,F_JCR_ABPU,55.8,56,100,107.5,112.5,,112.5,37.5,40,-42.5,,40,120,127.5,135,,135,287.5,SBD,
2,Alexia Grant,F,22,Wraps,F_JCR_ABPU,53.7,56,80,85,90,,90,60,65,-67.5,,65,100,110,115,,115,270,SBD,
1,Jennifer Childerhouse,F,21,Raw,F_JCR_ABPU,58.9,60,120,130,135,,135,55,-60,60,,60,125,135,140,,140,335,SBD,
3,Lucy Febrey,F,21,Wraps,F_JCR_ABPU,58.6,60,130,-140,,,130,60,65,67.5,,67.5,135,-142.5,-142.5,,135,332.5,SBD,
1,Téa Clark,F,20,Wraps,F_JCR_ABPU,66.4,67.5,107.5,117.5,125,,125,60,65,-67.5,,65,125,135,145,,145,335,SBD,
2,Tashana Gregory-Bailey,F,20,Raw,F_JCR_ABPU,66,67.5,112.5,117.5,-125,,117.5,55,60,62.5,,62.5,125,135,145,,145,325,SBD,
3,Grace Wellstood,F,23,Wraps,F_JCR_ABPU,66.4,67.5,85,95,107.5,,107.5,40,47.5,-55,,47.5,105,115,-125,,115,270,SBD,
1,Rhiannon Lamb,F,22,Wraps,F_JCR_ABPU,74.2,75,140,152.5,-157.5,,152.5,60,67.5,-75,,67.5,137.5,152.5,-160,,152.5,372.5,SBD,
1,Jordan Byrne,F,23,Wraps,F_JCR_ABPU,82.2,82.5,152.5,165,172.5,,172.5,85,90,95,96,95,150,162.5,170,,170,437.5,SBD,
1,Paige Hurst,F,22,Wraps,F_JCR_ABPU,89.1,90,142.5,153,160,,160,77.5,82.5,85,,85,160,170,180,,180,425,SBD,
1,Phoebe Wing,F,23,Wraps,F_JCR_ABPU,99.3,100,145,155,163,,163,62.5,-67.5,67.5,,67.5,150,160,170,,170,400.5,SBD,
NS,Ami Fullalove,F,42,Wraps,F_MCR_1_ABPU,,,,,,,,,,,,,,,,,,,SBD,
1,Amanda Gisby,F,40,Wraps,F_MCR_1_ABPU,63.7,67.5,140,150,-157.5,,150,60,65,-67.5,,65,150,160,165,,165,380,SBD,
2,Karla Evans,F,42,Wraps,F_MCR_1_ABPU,66.1,67.5,132.5,140,-147.5,,140,75,80,82.5,,82.5,120,125,130,,130,352.5,SBD,
3,Zowie Trevena,F,40,Wraps,F_MCR_1_ABPU,63.5,67.5,125,130,-135,,130,60,62.5,-65,,62.5,130,135,-140,,135,327.5,SBD,
1,Emma Donnelly,F,44,Wraps,F_MCR_1_ABPU,69.7,75,95,102.5,-107.5,,102.5,67.5,72.5,-75,,72.5,130,137.5,142.5,,142.5,317.5,SBD,
1,Elizabeth Elliott,F,42,Wraps,F_MCR_1_ABPU,78.8,82.5,100,110,120,,120,70,-75,75,,75,150,160,-170,,160,355,SBD,
1,Laura Guy,F,42,Wraps,F_MCR_1_ABPU,102,110,135,145,150,,150,72.5,80,87.5,,87.5,135,145,150,,150,387.5,SBD,
1,Suzanne Bolt,F,48,Wraps,F_MCR_2_ABPU,64.8,67.5,112.5,117.5,-120,,117.5,57.5,60,65,,65,127.5,132.5,137.5,,137.5,320,SBD,
2,Nicky Edgar,F,47,Wraps,F_MCR_2_ABPU,66.7,67.5,102.5,107.5,110,,110,50,55,-57.5,,55,120,130,-140,,130,295,SBD,
3,Angie Stevens,F,48,Wraps,F_MCR_2_ABPU,64.8,67.5,95,100,-105,,100,55,60,-62.5,,60,115,-125,125,,125,285,SBD,
1,Katie Edwards #1,F,48,Wraps,F_MCR_2_ABPU,75,75,-90,90,-97.5,,90,55,-60,60,,60,140,150,-160.5,,150,300,SBD,
1,Aneela Rose,F,50,Wraps,F_MCR_3_ABPU,57.9,60,80,85,90,,90,50,55,-57.5,,55,100,105,110,,110,255,SBD,
1,Annmarie Botha-Jones,F,54,Wraps,F_MCR_3_ABPU,66.5,67.5,120,130,140,,140,55,60,62.5,,62.5,120,130,-140,,130,332.5,SBD,
2,Sharaine Talbot,F,50,Wraps,F_MCR_3_ABPU,65.4,67.5,102.5,107.5,110,,110,57.5,62.5,-67.5,,62.5,147.5,-155,-155,,147.5,320,SBD,
3,Charlie Beardsley,F,51,Wraps,F_MCR_3_ABPU,66.5,67.5,87.5,90,95,,95,42.5,45,-50,,45,110,120,127.5,,127.5,267.5,SBD,
1,Kerry Howells,F,51,Wraps,F_MCR_3_ABPU,98.6,100,115,125,135,,135,77.5,82.5,-87.5,,82.5,160,170,175,-180,175,392.5,SBD,
1,Louise Clark #3,F,56,Wraps,F_MCR_4_ABPU,64.6,67.5,-110,110,117.5,,117.5,57.5,-60,60,,60,120,125,130,,130,307.5,SBD,
2,Allison Frost,F,55,Wraps,F_MCR_4_ABPU,65.7,67.5,85,92.5,97.5,,97.5,47.5,50,52.5,,52.5,115,122.5,130,,130,280,SBD,
3,Christine Clark,F,55,Wraps,F_MCR_4_ABPU,65.8,67.5,75,82.5,87.5,,87.5,40,45,47.5,,47.5,110,120,125,,125,260,SBD,
1,Paula Lyons,F,56,Wraps,F_MCR_4_ABPU,71.6,75,77.5,82.5,-87.5,,82.5,45,47.5,50,,50,105,110,115,,115,247.5,SBD,
2,Bev Johnson,F,57,Raw,F_MCR_4_ABPU,70.9,75,75,80,85,90,85,47.5,50,-52.5,,50,95,102.5,110,,110,245,SBD,
3,Debbie Spalding,F,55,Wraps,F_MCR_4_ABPU,74.3,75,-60,60,-65,,60,37.5,40,42.5,,42.5,100,110,115,120,115,217.5,SBD,
1,Eleanor Clements,F,62,Wraps,F_MCR_5_ABPU,68.2,75,55,62.5,67.5,,67.5,25,30,32.5,,32.5,80,85,90,,90,190,SBD,
1,Pauline Dolan,F,64,Wraps,F_MCR_5_ABPU,88.1,90,107.5,112.5,-115,,112.5,62.5,65,67.5,,67.5,140,147.5,150,,150,330,SBD,
2,Valerie Tinker,F,62,Wraps,F_MCR_5_ABPU,89.3,90,75,85,95,,95,42.5,47.5,50,,50,105,117.5,-120,,117.5,262.5,SBD,
1,Diane Leach,F,64,Wraps,F_MCR_5_ABPU,95.7,100,102.5,110,115,,115,47.5,-52.5,52.5,,52.5,125,132.5,140,,140,307.5,SBD,
1,Lissy Trevena,F,17,Wraps,F_TCR_2_ABPU,58.3,60,80,90,97.5,,97.5,40,42.5,-45,,42.5,105,115,120,,120,260,SBD,
1,Freya Johnson #1,F,18,Wraps,F_TCR_3_ABPU,66.3,67.5,160,170,175,,175,72.5,-75,75,80,75,170,180,,,180,430,SBD,
1,Sophie Lampitt,F,19,Wraps,F_TCR_3_ABPU,71.5,75,-112.5,120,-130,,120,52.5,57.5,62.5,,62.5,135,150,162.5,,162.5,345,SBD,
2,Vikki Huxley,F,22,Wraps,F_JCR_ABPU,58.5,60,110,117.5,122.5,,122.5,40,47.5,-50,,47.5,120,130,135,,135,305,SBD,
2,Emma Cobby,F,23,Wraps,F_JCR_ABPU,69.4,75,105,115,120,,120,62.5,67.5,72.5,,72.5,120,130,137.5,,137.5,330,SBD,
