Division,WeightClassKg,Place,Name,Team,BodyweightKg,Best3SquatKg,Best3BenchKg,Best3DeadliftKg,TotalKg,Equipment,Event,Sex,BirthDate
Boys,51.71,1,Felipe Garza,McAllen,51.17,183.7,127.01,172.37,483.08,Single-ply,SBD,M,
Boys,51.71,2,Dante Silva,Mission Sharyland,51.62,145.15,92.99,147.42,385.55,Single-ply,SBD,M,
Boys,51.71,3,Dashel Burrows,Sharyland Pioneer,48.72,124.74,86.18,138.35,349.27,Single-ply,SBD,M,
Boys,51.71,4,Joseph Soto,PSJA Memorial,51.35,102.06,65.77,129.27,297.1,Single-ply,SBD,M,
Boys,51.71,5,Carlos Cantu,McAllen Memorial,45.9,111.13,54.43,122.47,288.03,Single-ply,SBD,M,
Boys,55.79,1,Luis Garcia #9,Sharyland Pioneer,55.43,181.44,108.86,181.44,471.74,Single-ply,SBD,M,
Boys,55.79,2,Angel Rivera,McAllen Memorial,55.07,158.76,99.79,165.56,424.11,Single-ply,SBD,M,
Boys,55.79,3,Jonah Henderson,McAllen,54.43,158.76,90.72,163.29,412.77,Single-ply,SBD,M,
Boys,55.79,4,Alex Montemayor,Mission Sharyland,55.43,136.08,88.45,142.88,367.41,Single-ply,SBD,M,
Boys,55.79,5,Eugenio Chavez,Mission Sharyland,54.88,136.08,83.91,145.15,365.14,Single-ply,SBD,M,
Boys,55.79,6,Seth DeLeon,McAllen Memorial,55.52,111.13,68.04,138.35,317.51,Single-ply,SBD,M,
Boys,55.79,DQ,Oscar Duarte,PSJA Memorial,53.52,140.61,,,,Single-ply,SBD,M,
Boys,59.87,1,Michael Morgan,PSJA Memorial,59.42,190.51,136.08,172.37,498.95,Single-ply,SBD,M,
Boys,59.87,2,Aaron Martinez,PSJA Southwest,58.24,147.42,92.99,158.76,399.16,Single-ply,SBD,M,
Boys,67.13,1,Isaias Salinas,McAllen Memorial,66.95,190.51,124.74,222.26,537.51,Single-ply,SBD,M,
Boys,67.13,2,Thomas Rivera,Sharyland Pioneer,65.23,213.19,113.4,199.58,526.17,Single-ply,SBD,M,
Boys,67.13,3,Sergio Montano,Sharyland Pioneer,67.13,181.44,111.13,199.58,492.15,Single-ply,SBD,M,
Boys,67.13,4,Thomas Marina,Sharyland Pioneer,66.77,192.78,106.59,183.7,483.08,Single-ply,SBD,M,
Boys,67.13,5,Sebastian Aleman,McAllen Memorial,66.86,174.63,111.13,183.7,469.47,Single-ply,SBD,M,
Boys,67.13,6,Marcelo Bartolomeo,Mission Sharyland,66.86,174.63,120.2,161.03,455.86,Single-ply,SBD,M,
Boys,67.13,7,Adan De La Cruz,McAllen Rowe,66.32,170.1,99.79,172.37,442.25,Single-ply,SBD,M,
Boys,67.13,8,Joel Sanchez #8,PSJA Southwest,63.14,147.42,81.65,136.08,365.14,Single-ply,SBD,M,
Boys,67.13,9,Andrew Knoblach,Sharyland Pioneer,67.13,136.08,79.38,145.15,360.61,Single-ply,SBD,M,
Boys,67.13,DQ,Marcelo Velasco,Mission Sharyland,66.41,174.63,117.93,,,Single-ply,SBD,M,
Boys,67.13,DQ,Brendon Gonzalez,PSJA Memorial,61.33,,,,,Single-ply,SBD,M,
Boys,74.84,1,Jacob Olivarez,PSJA Memorial,70.76,240.4,133.81,226.8,601.01,Single-ply,SBD,M,
Boys,74.84,2,Daniel Anzaldua,Mission Sharyland,73.84,206.38,151.95,197.31,555.65,Single-ply,SBD,M,
Boys,74.84,3,Jerry Rodriguez,McAllen Memorial,73.57,226.8,129.27,190.51,546.58,Single-ply,SBD,M,
Boys,74.84,4,Eduardo Mendoza,Mission Sharyland,71.12,170.1,113.4,174.63,458.13,Single-ply,SBD,M,
Boys,74.84,5,Nicolas Moreno,Mission Sharyland,73.75,167.83,88.45,183.7,439.98,Single-ply,SBD,M,
Boys,74.84,6,Alex Garcia #23,McAllen Rowe,69.85,156.49,108.86,170.1,435.45,Single-ply,SBD,M,
Boys,74.84,DQ,Marco Garza,Mission Sharyland,71.94,163.29,,,,Single-ply,SBD,M,
Boys,82.1,1,Diego Trevino,Mission Sharyland,80.29,185.97,131.54,215.46,532.97,Single-ply,SBD,M,
Boys,82.1,2,Eric Requenez,McAllen Rowe,79.92,183.7,106.59,167.83,458.13,Single-ply,SBD,M,
Boys,82.1,3,Patricio Garcia,McAllen Rowe,79.92,161.03,122.47,165.56,449.06,Single-ply,SBD,M,
Boys,82.1,4,Isaiah Mata,McAllen Rowe,79.02,176.9,106.59,154.22,437.72,Single-ply,SBD,M,
Boys,82.1,5,Oziel Flores,PSJA Memorial,81.92,167.83,90.72,174.63,433.18,Single-ply,SBD,M,
Boys,82.1,DQ,Eric Arevalo,Pharr Valley View,79.11,165.56,,,,Single-ply,SBD,M,
Boys,82.1,DQ,Luis Segura,PSJA Southwest,75.75,,,,,Single-ply,SBD,M,
Boys,89.81,1,Jose Cavazos,McAllen Rowe,89.45,254.01,151.95,224.53,630.49,Single-ply,SBD,M,
Boys,89.81,2,Anthony Del Angel,Sharyland Pioneer,83.46,226.8,142.88,231.33,601.01,Single-ply,SBD,M,
Boys,89.81,3,Demitri Ayala,McAllen,85.91,229.06,131.54,192.78,553.38,Single-ply,SBD,M,
Boys,89.81,4,Daniel De La Cruz,McAllen Memorial,88.27,201.85,129.27,210.92,542.04,Single-ply,SBD,M,
Boys,89.81,5,Diego Barrera,McAllen,83.46,158.76,92.99,172.37,424.11,Single-ply,SBD,M,
Boys,89.81,6,Ruben Alvarez,PSJA Southwest,86.91,142.88,97.52,145.15,385.55,Single-ply,SBD,M,
Boys,89.81,DQ,Jetzael Ramos,PSJA Southwest,83.19,,,,,Single-ply,SBD,M,
Boys,89.81,DQ,Alejandro Corona,PSJA Memorial,89.72,179.17,120.2,,,Single-ply,SBD,M,
Boys,89.81,DQ,Jesús Flores,Pharr Valley View,87.63,,,,,Single-ply,SBD,M,
Boys,99.79,1,Jj Johnson,McAllen Memorial,99.79,260.82,142.88,217.72,621.42,Single-ply,SBD,M,
Boys,99.79,2,Juan Cantu,McAllen,99.16,247.21,133.81,233.6,614.62,Single-ply,SBD,M,
Boys,99.79,3,Israel Nicanor,Sharyland Pioneer,95.71,247.21,117.93,219.99,585.13,Single-ply,SBD,M,
Boys,99.79,4,Hugo Burroso,Sharyland Pioneer,96.52,226.8,117.93,217.72,562.45,Single-ply,SBD,M,
Boys,99.79,5,Mark Pena,PSJA Memorial,99.16,213.19,138.35,210.92,562.45,Single-ply,SBD,M,
Boys,99.79,6,Camilo Galaviz,Sharyland Pioneer,91.99,206.38,117.93,195.04,519.36,Single-ply,SBD,M,
Boys,99.79,7,Herieberto Rocha,PSJA Southwest,93.62,181.44,120.2,183.7,485.34,Single-ply,SBD,M,
Boys,99.79,8,Carlos Rivera,Pharr Valley View,99.16,170.1,127.01,147.42,444.52,Single-ply,SBD,M,
Boys,99.79,9,Jozef Baldado,Mission Sharyland,93.71,174.63,95.25,158.76,428.64,Single-ply,SBD,M,
Boys,99.79,10,Demetrio Talamantes,McAllen Rowe,98.34,174.63,90.72,154.22,419.57,Single-ply,SBD,M,
Boys,99.79,11,Salomon Rocha,PSJA Southwest,95.62,140.61,95.25,142.88,378.75,Single-ply,SBD,M,
Boys,99.79,12,Jesus Ponce,PSJA Southwest,93.17,147.42,68.04,149.69,365.14,Single-ply,SBD,M,
Boys,99.79,DQ,Raylie Cuellar,Pharr Valley View,99.7,219.99,,,,Single-ply,SBD,M,
Boys,99.79,DQ,Eddie Guijarro,PSJA Southwest,97.43,156.49,95.25,,,Single-ply,SBD,M,
Boys,109.77,1,Ryan Creasy,McAllen Rowe,106.59,251.74,179.17,283.5,714.41,Single-ply,SBD,M,
Boys,109.77,2,Christoval Villarreal,McAllen,104.69,249.48,151.95,251.74,653.17,Single-ply,SBD,M,
Boys,109.77,3,Victor Martinez,PSJA Memorial,102.06,233.6,138.35,204.12,576.06,Single-ply,SBD,M,
Boys,109.77,4,Matthew Vega,McAllen,103.69,204.12,115.67,188.24,508.02,Single-ply,SBD,M,
Boys,109.77,5,Josh Lang,McAllen Memorial,103.87,183.7,113.4,167.83,464.93,Single-ply,SBD,M,
Boys,109.77,DQ,Josue Martinez,PSJA Southwest,109.13,161.03,,,,Single-ply,SBD,M,
Boys,124.74,1,Carlos Rodriguez #13,McAllen Memorial,116.66,294.84,183.7,242.67,721.21,Single-ply,SBD,M,
Boys,124.74,2,Jaxson Quintanilla,McAllen,123.29,254.01,161.03,210.92,625.96,Single-ply,SBD,M,
Boys,124.74,3,Gabriel Dougherty,McAllen Rowe,115.67,224.53,142.88,226.8,594.21,Single-ply,SBD,M,
Boys,124.74,4,Juan Garcia #7,McAllen Rowe,123.29,208.65,170.1,190.51,569.26,Single-ply,SBD,M,
Boys,124.74,5,Ethan Hinojosa,Sharyland Pioneer,116.75,217.72,111.13,208.65,537.51,Single-ply,SBD,M,
Boys,124.74,6,Aaron Izaguirre,McAllen,124.56,181.44,104.33,172.37,458.13,Single-ply,SBD,M,
Boys,124.74,DQ,Julian Lopez,PSJA Memorial,112.49,244.94,131.54,,,Single-ply,SBD,M,
Boys,139.71,1,Oscar de la Cruz,PSJA Southwest,131.63,256.28,174.63,238.14,669.05,Single-ply,SBD,M,
Boys,139.71,2,Gael Pineda,PSJA Memorial,136.08,208.65,147.42,188.24,544.31,Single-ply,SBD,M,
Boys,139.71,3,Maddox Braxton,McAllen,137.53,235.87,140.61,158.76,535.24,Single-ply,SBD,M,
Boys,139.71,4,Carlos Becerra,PSJA Southwest,137.98,161.03,113.4,140.61,415.04,Single-ply,SBD,M,
Boys,139.71,DQ,Thomas Domian,McAllen Memorial,128.5,254.01,192.78,,,Single-ply,SBD,M,
Boys,139.71+,1,Marcos De Ochoa,McAllen Memorial,150.96,340.19,183.7,281.23,805.13,Single-ply,SBD,M,
Boys,139.71+,2,Michael Banda,McAllen Rowe,144.15,188.24,151.95,161.03,501.22,Single-ply,SBD,M,
Boys,139.71+,DQ,Gabriel Banda,McAllen Rowe,145.88,,,,,Single-ply,SBD,M,
