Division,WeightClassKg,Place,Name,Team,BodyweightKg,Best3SquatKg,Best3BenchKg,Best3DeadliftKg,TotalKg,Equipment,Event,Sex,BirthDate
Boys,51.71,1,Juventino Guerrero,Hidalgo Early College,51.26,136.08,88.45,165.56,390.09,Single-ply,SBD,M,
Boys,51.71,2,Gustavo Guerrero,Port Isabel,50.44,142.88,88.45,145.15,376.48,Single-ply,SBD,M,
Boys,51.71,3,Derek Perez #1,Rio Hondo,47.99,154.22,70.31,149.69,374.21,Single-ply,SBD,M,
Boys,51.71,4,Julian Betancourt,Lyford,50.62,131.54,72.57,142.88,347,Single-ply,SBD,M,
Boys,51.71,5,Diego Garcia #1,Rio Hondo,49.8,117.93,56.7,138.35,312.98,Single-ply,SBD,M,
Boys,51.71,6,Marc Leos,La Feria,50.08,106.59,77.11,124.74,308.44,Single-ply,SBD,M,
Boys,51.71,7,Alvaro Valdez,Hidalgo Early College,50.26,106.59,68.04,115.67,290.3,Single-ply,SBD,M,
Boys,55.79,1,Jaden Lopez,Port Isabel,55.75,215.46,104.33,206.38,526.17,Single-ply,SBD,M,
Boys,55.79,2,Christian Lozano,Rio Hondo,55.34,147.42,79.38,151.95,378.75,Single-ply,SBD,M,
Boys,59.87,1,Jorge Guajardo,Port Isabel,59.83,213.19,129.27,233.6,576.06,Single-ply,SBD,M,
Boys,59.87,2,Gabriel Chavez,Lyford,59.87,204.12,97.52,201.85,503.49,Single-ply,SBD,M,
Boys,59.87,3,Dorian Ramirez,Hidalgo Early College,57.88,142.88,83.91,142.88,369.68,Single-ply,SBD,M,
Boys,67.13,1,Jose Barrientos,Rio Hondo,67.13,201.85,113.4,213.19,528.44,Single-ply,SBD,M,
Boys,67.13,2,Tomas Arredondo,Rio Hondo,66.59,181.44,133.81,183.7,498.95,Single-ply,SBD,M,
Boys,67.13,3,Nicholas Morales,La Feria,66.04,183.7,127.01,170.1,480.81,Single-ply,SBD,M,
Boys,67.13,4,Rick De Luna,Lyford,66.77,161.03,86.18,161.03,408.23,Single-ply,SBD,M,
Boys,67.13,5,Damien Rangel,Lyford,65.5,145.15,81.65,156.49,383.29,Single-ply,SBD,M,
Boys,67.13,6,Abraham Sandoval,Port Isabel,65.77,142.88,72.57,158.76,374.21,Single-ply,SBD,M,
Boys,67.13,7,Juan Martinez,Hidalgo Early College,61.23,129.27,77.11,142.88,349.27,Single-ply,SBD,M,
Boys,74.84,1,Jacob Broussard,Brownsville Hanna,74.03,240.4,151.95,201.85,594.21,Single-ply,SBD,M,
Boys,74.84,2,Victor Rubalcaba,Lyford,73.57,213.19,124.74,222.26,560.19,Single-ply,SBD,M,
Boys,74.84,3,Ethan Moreno,Lyford,73.39,197.31,117.93,222.26,537.51,Single-ply,SBD,M,
Boys,74.84,4,Derrin Valdez,Port Isabel,70.85,208.65,117.93,208.65,535.24,Single-ply,SBD,M,
Boys,74.84,5,Christian Sosa,La Feria,67.86,190.51,111.13,185.97,487.61,Single-ply,SBD,M,
Boys,74.84,6,Ricky Rodriguez,Port Isabel,74.03,174.63,129.27,183.7,487.61,Single-ply,SBD,M,
Boys,74.84,7,Aaron Barrera,Port Isabel,74.03,183.7,124.74,174.63,483.08,Single-ply,SBD,M,
Boys,74.84,8,Leroy Benavidez,La Feria,69.22,156.49,104.33,181.44,442.25,Single-ply,SBD,M,
Boys,82.1,1,Evan Sanchez,La Feria,81.28,238.14,147.42,233.6,619.15,Single-ply,SBD,M,
Boys,82.1,2,Travis Menchaca,La Feria,80.56,233.6,131.54,247.21,612.35,Single-ply,SBD,M,
Boys,82.1,3,Christopher Guerrero,Raymondville,79.02,206.38,129.27,226.8,562.45,Single-ply,SBD,M,
Boys,82.1,4,Ruben Campos,Hidalgo Early College,81.19,215.46,131.54,206.38,553.38,Single-ply,SBD,M,
Boys,82.1,5,Zac Tollet,Hidalgo Early College,81.1,204.12,122.47,208.65,535.24,Single-ply,SBD,M,
Boys,82.1,6,Damien Tamez,Raymondville,75.39,165.56,92.99,170.1,428.64,Single-ply,SBD,M,
Boys,82.1,7,Raul Sedas,Hidalgo Early College,80.2,163.29,92.99,142.88,399.16,Single-ply,SBD,M,
Boys,82.1,8,Daniel Galvan,Port Isabel,76.79,165.56,83.91,147.42,396.89,Single-ply,SBD,M,
Boys,82.1,9,Noah Hernandez,Port Isabel,81.74,145.15,92.99,158.76,396.89,Single-ply,SBD,M,
Boys,82.1,DQ,Christian Ferrone,Port Isabel,81.78,233.6,,,,Single-ply,SBD,M,
Boys,89.81,1,Manuel Flores,Rio Hondo,89.27,233.6,170.1,197.31,601.01,Single-ply,SBD,M,
Boys,89.81,2,Matthew Jimenez,Raymondville,87.45,231.33,147.42,210.92,589.67,Single-ply,SBD,M,
Boys,89.81,3,David Garza,La Feria,88.09,210.92,129.27,222.26,562.45,Single-ply,SBD,M,
Boys,89.81,4,Miseal Perez,La Feria,85.64,190.51,138.35,158.76,487.61,Single-ply,SBD,M,
Boys,89.81,5,Ezra Hernandez,Raymondville,83.28,183.7,102.06,183.7,469.47,Single-ply,SBD,M,
Boys,89.81,6,Sebastian Nelson,Port Isabel,88.63,142.88,72.57,156.49,371.95,Single-ply,SBD,M,
Boys,89.81,7,Anthony Aguillon,Port Isabel,84.01,127.01,81.65,129.27,337.93,Single-ply,SBD,M,
Boys,99.79,1,Carlos Martinez #25,Lyford,99.52,254.01,147.42,260.82,662.24,Single-ply,SBD,M,
Boys,99.79,2,Ezequiel Palestina,Port Isabel,97.48,231.33,124.74,208.65,564.72,Single-ply,SBD,M,
Boys,99.79,3,Aaron Cervantes,Hidalgo Early College,96.71,219.99,127.01,183.7,530.7,Single-ply,SBD,M,
Boys,99.79,4,Mario Nava,Port Isabel,96.62,185.97,113.4,165.56,464.93,Single-ply,SBD,M,
Boys,99.79,5,Keller Busse,Lyford,97.34,181.44,74.84,167.83,424.11,Single-ply,SBD,M,
Boys,99.79,DQ,Christopher Finona,Port Isabel,99.43,,,,,Single-ply,SBD,M,
Boys,109.77,1,Kane Martinez,Hidalgo Early College,106.78,256.28,120.2,233.6,610.08,Single-ply,SBD,M,
Boys,109.77,2,Victor Parra,Hidalgo Early College,108.14,183.7,117.93,183.7,485.34,Single-ply,SBD,M,
Boys,109.77,3,Luis Varela,Port Isabel,102.19,145.15,83.91,131.54,360.61,Single-ply,SBD,M,
Boys,124.74,1,Matthew Lopez #1,Rio Hondo,124.47,335.66,213.19,265.35,814.2,Single-ply,SBD,M,
Boys,124.74,2,Ruben Perez,Rio Hondo,117.66,276.69,174.63,224.53,675.85,Single-ply,SBD,M,
Boys,124.74,DQ,Michael Garza #6,Rio Hondo,112.04,,,,,Single-ply,SBD,M,
Boys,139.71,1,Scott Atkinson,Rio Hondo,133.81,317.51,170.1,281.23,768.84,Single-ply,SBD,M,
Boys,139.71,2,Rudy Sanchez,La Feria,131.09,258.55,161.03,217.72,637.3,Single-ply,SBD,M,
Boys,139.71,3,Manuel Ramirez,Rio Hondo,125.37,238.14,138.35,229.06,605.55,Single-ply,SBD,M,
Boys,139.71,4,Seth Morales,La Feria,131.63,249.48,136.08,192.78,578.33,Single-ply,SBD,M,
Boys,139.71,5,Giovanni Cruz,Hidalgo Early College,125.19,219.99,127.01,190.51,537.51,Single-ply,SBD,M,
Boys,139.71+,1,Nick Gomez,Raymondville,148.14,288.03,183.7,226.8,698.53,Single-ply,SBD,M,
Boys,139.71+,2,Miguel Chavarria,Rio Hondo,153.22,254.01,151.95,224.53,630.49,Single-ply,SBD,M,
Boys,139.71+,3,Ricardo Barba,La Feria,166.83,183.7,127.01,163.29,474,Single-ply,SBD,M,
Boys,,NS,Dillon Garcia,Hidalgo Early College,,,,,,Single-ply,SBD,M,
Boys,,NS,Alex Castro,Lyford,,,,,,Single-ply,SBD,M,
Boys,,NS,Alex Rosas,Lyford,,,,,,Single-ply,SBD,M,
Boys,,NS,Noah Guzman,Lyford,,,,,,Single-ply,SBD,M,
Boys,,NS,Mason Reyes,Port Isabel,,,,,,Single-ply,SBD,M,
Boys,,NS,Luis Martinez,Port Isabel,,,,,,Single-ply,SBD,M,
Boys,,NS,Michael Zolaski,Port Isabel,,,,,,Single-ply,SBD,M,
