Place,Name,Sex,BirthDate,Age,State,Equipment,Division,BodyweightKg,WeightClassKg,Squat1Kg,Squat2Kg,Squat3Kg,Squat4Kg,Best3SquatKg,Bench1Kg,Bench2Kg,Bench3Kg,Bench4Kg,Best3BenchKg,Deadlift1Kg,Deadlift2Kg,Deadlift3Kg,Best3DeadliftKg,TotalKg,Event
1,Maya Winkers,F,2000-01-14,,AB,Raw,J20-23,58.4,60,122.5,132.5,-137.5,,132.5,67.5,-72.5,72.5,,72.5,125,137.5,140,140,345,SBD
1,Rachel Peterson,F,1999-05-15,,AB,Raw,J20-23,86,90,120,-137.5,142.5,147.5,142.5,55,65,75,,75,110,127.5,-140.5,127.5,345,SBD
1,Debbie Walchuk,F,1980-08-06,,AB,Raw,M40-44,64.5,67.5,-107.5,-107.5,112.5,,112.5,62.5,70,72.5,,72.5,112.5,120,127.5,127.5,312.5,SBD
1,Theresa Byam,F,,,AB,Raw,M40-44,80.2,82.5,110,115,127.5,130,127.5,67.5,75,77.5,-80,77.5,145,-155,-162.5,145,350,SBD
2,Trina Hampton,F,1977-12-14,,AB,Wraps,M40-44,78,82.5,90,95,-100,,95,52.5,-57.5,57.5,,57.5,122.5,-125,-125,122.5,275,SBD
1,Leslie Gurr,F,1968-07-01,,AB,Wraps,M50-54,59.9,60,-135,135,-145,,135,72.5,77.5,85,,85,165,172.5,-181,172.5,392.5,SBD
1,JoAnne Mclaughlin,F,1969-05-14,,AB,Raw,M50-54,66.6,67.5,80,87.5,95,,95,47.5,52.5,55,,55,122.5,132.5,140,140,290,SBD
2,Sandra Cappan,F,1969-01-19,,AB,Raw,M50-54,62.8,67.5,90,92.5,95,,95,-57.5,60,-62.5,,60,127.5,130,-132.5,130,285,SBD
1,Marthe Henry,F,1998-01-08,,AB,Raw,Open,58,60,140,147.5,-150,,147.5,80,-85,-85,,80,170,185,190,190,417.5,SBD
1,Bianca Liberatore,F,1991-11-01,,AB,Raw,Open,66.3,67.5,137.5,147.5,-157.5,,147.5,97.5,-105,-105,,97.5,170,-182.5,-182.5,170,415,SBD
2,Amanda Fahey,F,1984-09-13,,AB,Raw,Open,66.3,67.5,110,120,125,,125,62.5,65,-67.5,,65,142.5,150,152.5,152.5,342.5,SBD
3,Jackie Macdonald,F,1986-08-10,,AB,Raw,Open,64,67.5,85,90,-97.5,,90,50,55,-57.5,,55,125,135,137.5,137.5,282.5,SBD
1,Hannah Brock,F,1994-06-16,,AB,Wraps,Open,75,75,200,210,220,,220,107.5,-112.5,-117.5,,107.5,190,205,-220,205,532.5,SBD
2,Helene Tremblay,F,1991-01-14,,AB,Wraps,Open,75,75,177.5,-192.5,-192.5,,177.5,112.5,120,125,,125,175,187.5,-197.5,187.5,490,SBD
3,Leah Cameron,F,1991-11-26,,AB,Wraps,Open,71.1,75,160,172.5,-182.5,,172.5,100,-105,,,100,165,-182.5,,165,437.5,SBD
4,Jaclyn Klukach,F,1986-09-30,,AB,Raw,Open,68,75,130,137.5,145,,145,60,65,70,,70,160,172.5,175,175,390,SBD
5,Anne Butters,F,1996-06-30,,AB,Wraps,Open,74.3,75,-135,140,150,,150,70,-75,-75,,70,135,142.5,150,150,370,SBD
1,Jacqueline Sabourin,F,1991-01-02,,AB,Raw,Open,76,82.5,135,145,-150,,145,60,65,-72.5,,65,170,182.5,185,185,395,SBD
2,Justine Phalen,F,1989-04-11,,AB,Raw,Open,79.8,82.5,120,127.5,-137.5,,127.5,65,70,-75,,70,125,137.5,-147.5,137.5,335,SBD
1,Kimiko Thmpson,F,1990-04-05,,AB,Raw,Open,86.8,90,117.5,127.5,137.5,,137.5,65,-72.5,75,,75,157.5,170,175,175,387.5,SBD
2,Rachel Peterson,F,1999-05-15,,AB,Raw,Open,86,90,120,-137.5,142.5,147.5,142.5,55,65,75,,75,110,127.5,-140.5,127.5,345,SBD
4,Amanda Billingsley,F,1984-08-08,,AB,Raw,Open,88.2,90,85,90,95,,95,45,-47.5,47.5,,47.5,117.5,122.5,127.5,127.5,270,SBD
DQ,Kimberley Brenner,F,1993-02-11,,AB,Raw,Open,84.6,90,120,135,145,,145,-75,-75,-75,,,160,-180,-182.5,160,,SBD
1,Elisse Cataford,F,1998-03-13,,AB,Wraps,Open,90.5,90+,197.5,212.5,227.5,,227.5,110,-115,-122.5,,110,190,202.5,-230,202.5,540,SBD
2,Kiersten Zimmerman,F,1998-05-08,,AB,Wraps,Open,109,90+,-180,180,190,,190,70,77.5,85,,85,160,-170,170,170,445,SBD
3,Caitlyn Obrien,F,1998-09-16,,AB,Raw,Open,127.7,90+,130,135,140,,140,67.5,70,-72.5,,70,142.5,147.5,155,155,365,SBD
4,Ashlie Borges,F,1991-11-15,,AB,Raw,Open,94.6,90+,102.5,110,120,,120,57.5,62.5,-67.5,,62.5,145,155,160,160,342.5,SBD
5,Paige Sabrowsky,F,1996-11-05,,AB,Raw,Open,94.7,90+,-102.5,102.5,110,,110,50,55,-57.5,,55,115,127.5,137.5,137.5,302.5,SBD
DQ,Hayden Theophile,F,2005-05-03,,AB,Raw,J17-19,71.2,75,62.5,70,75,,75,-47.5,-50,-50,,,100,107.5,115,115,,SBD
1,Makenzy Canham,F,2008-08-21,,AB,Raw,J14-16,103.9,90+,130,140,147.5,,147.5,50,57.5,62.5,,62.5,137.5,150,155,155,365,SBD
1,Leslie Gurr,F,1968-07-01,,AB,Wraps,M50-54,59.9,60,-135,135,-145,,135,,,,,,,,,,135,S
1,Leslie Gurr,F,1968-07-01,,AB,Raw,M50-54,59.9,60,,,,,,,,,,,165,172.5,-181,172.5,172.5,D
1,Kimberley Brenner,F,1993-02-11,,AB,Raw,Open,84.6,90,,,,,,,,,,,160,-180,-182.5,160,160,D
1,De'Lano-J Woodbine,M,2000-06-19,,AB,Raw,J20-23,105.5,110,250,272.5,-280,,272.5,180,195,-205,,195,285,305,-320,305,772.5,SBD
1,Brad Walchuk,M,1976-02-26,,AB,Raw,M45-49,75,75,-170,175,185,,185,115,122.5,125,,125,197.5,215,222.5,222.5,532.5,SBD
1,Mike McLaughlin,M,1972-04-05,,AB,Raw,M50-54,119,125,225,232.5,240,,240,125,132.5,-137.5,,132.5,245,257.5,-267.5,257.5,630,SBD
1,Wayne Coffey,M,1987-08-10,,AB,Raw,Open,82.5,82.5,265,-277.5,277.5,,277.5,-172.5,172.5,185,,185,302.5,317.5,-330.5,317.5,780,SBD
2,Kyle Evans #5,M,1986-02-28,,AB,Raw,Open,80.3,82.5,130,140,147.5,,147.5,62.5,70,-75,,70,165,177.5,187.5,187.5,405,SBD
DQ,Wes Bowie,M,1996-11-15,,AB,Raw,Open,82,82.5,140,147.5,155,,155,-117.5,-117.5,-117.5,,,185,192.5,200,200,,SBD
1,Joel Janssen,M,1992-05-01,,AB,Wraps,Open,86.5,90,315,332.5,-340,,332.5,165,172.5,177.5,,177.5,350,380,-390,380,890,SBD
2,Wesley Wakeford,M,1997-06-17,,AB,Wraps,Open,89,90,260,-275,280,,280,147.5,157.5,167.5,,167.5,220,240,255,255,702.5,SBD
3,Brandon Fromm,M,1987-05-20,,AB,Raw,Open,86.8,90,200,217.5,222.5,,222.5,145,152.5,160,,160,240,250,-265,250,632.5,SBD
1,Alexander Scory,M,1996-07-06,,AB,Wraps,Open,93.8,100,332.5,350,-365,,350,210,-212.5,,,210,290,-307.5,307.5,307.5,867.5,SBD
2,Ariel Kuppers,M,1988-10-23,,AB,Wraps,Open,95.7,100,240,255,262.5,,262.5,155,162.5,165,,165,320,340,-350,340,767.5,SBD
3,Denis LaBreche,M,1983-12-06,,AB,Wraps,Open,99.9,100,260,280,287.5,,287.5,150,157.5,160,,160,260,287.5,,287.5,735,SBD
4,Paul Farbacher,M,1997-03-17,,AB,Raw,Open,100,100,310,325,330,,330,215,-227.5,-227.5,,215,75,,,75,620,SBD
5,Tyson Kohl,M,1979-08-29,,,Wraps,Open,93.9,100,230,-242.5,-242.5,,230,102.5,,,,102.5,220,242.5,-255,242.5,575,SBD
6,Dan Withnell,M,1983-09-24,,AB,Wraps,Open,100,100,175,-177.5,-177.5,,175,110,112.5,-115,,112.5,220,225,227.5,227.5,515,SBD
1,Alex Charchuk,M,1985-04-14,,AB,Raw,Open,108.3,110,305,325,335,,335,190,205,-210,,205,340,360,-367.5,360,900,SBD
2,Ryan Selk,M,1987-02-24,,AB,Wraps,Open,106.8,110,310,335,,,335,170,177.5,182.5,,182.5,295,325,,325,842.5,SBD
3,Tom Byam,M,1995-06-28,,AB,Raw,Open,107.8,110,255,262.5,267.5,,267.5,160,167.5,177.5,,177.5,272.5,280,-285,280,725,SBD
4,Zak Palek,M,1995-03-01,,AB,Raw,Open,107.8,110,220,235,-240,,235,140,147.5,-152.5,,147.5,250,-267.5,,250,632.5,SBD
5,Justin Weitz,M,1991-11-14,,AB,Raw,Open,105.2,110,210,225,230,,230,132.5,140,-142.5,,140,245,257.5,-265,257.5,627.5,SBD
6,Samuel Koop,M,1998-02-16,,AB,Raw,Open,108.8,110,200,220,-227.5,,220,130,135,-140,,135,240,260,-272.5,260,615,SBD
7,Kyle Chase,M,1984-11-06,,,Wraps,Open,108.6,110,227.5,-247.5,-247.5,,227.5,135,-142.5,-142.5,,135,227.5,240,250,250,612.5,SBD
8,Chad Burke,M,1990-02-06,,AB,Raw,Open,110,110,-185,185,-192.5,,185,117.5,122.5,-137.5,,122.5,227.5,250,262.5,262.5,570,SBD
1,Wil Dejong,M,1992-06-09,,AB,Raw,Open,124,125,282.5,307.5,,,307.5,190,202.5,-205,,202.5,325,357.5,375,375,885,SBD
2,Alastair MacNicol,M,1987-04-15,,AB,Raw,Open,116.8,125,-290,295,-322.5,,295,192.5,-200,-200,,192.5,320,345,-360,345,832.5,SBD
3,Andrew Lewis #1,M,1986-05-19,,AB,Raw,Open,124.2,125,190,215,230,,230,167.5,182.5,-192.5,,182.5,282.5,300,-317.5,300,712.5,SBD
1,Justin Zottl,M,1993-02-23,,AB,Wraps,Open,133.5,140,360,385,400,,400,207.5,227.5,235,,235,332.5,355,365,365,1000,SBD
2,Dorrell Petties-Dahmer,M,1989-12-31,,AB,Raw,Open,126.8,140,280,300,310,,310,165,172.5,,,172.5,350,385,-400,385,867.5,SBD
3,Joseph Favia,M,1986-09-21,,AB,Wraps,Open,126.9,140,325,-345,345,,345,-205,205,-207.5,,205,310,-332.5,-332.5,310,860,SBD
4,Umberto Cappella,M,1991-02-10,,AB,Raw,Open,128.5,140,257.5,272.5,-285,,272.5,187.5,200,-205,,200,-290,290,-310,290,762.5,SBD
5,Kyle Gordon,M,1986-08-24,,AB,Wraps,Open,131.6,140,232.5,245,255,,255,150,162.5,-170,,162.5,260,280,-300,280,697.5,SBD
6,Zachary Phillips #1,M,1989-08-17,,AB,Wraps,Open,132.8,140,175,195,207.5,,207.5,95,105,112.5,,112.5,230,250,275,275,595,SBD
1,Brad Ogston,M,1987-10-20,,AB,Wraps,Open,159.9,140+,320,340,-350,,340,185,200,210,,210,320,-355,-355,320,870,SBD
1,Ethan Stafford-Mayer,M,2003-04-24,,AB,Raw,J17-19,80.7,82.5,157.5,172.5,182.5,,182.5,120,127.5,-137.5,,127.5,205,215,-225,215,525,SBD
1,Jonathan Archibald,M,,,AB,Raw,J17-19,112.2,125,175,190,197.5,,197.5,90,102.5,110,,110,187.5,212.5,227.5,227.5,535,SBD
DQ,Foster Lavallee,M,2008-07-12,,,Raw,J14-16,63.2,67.5,75,80,85,,85,57.5,-60,-65,,57.5,-102.5,,,,,SBD
1,Maxim Gagne,M,1990-06-26,,AB,Raw,Open,91.9,100,,,,,,122.5,142.5,-150,,142.5,212.5,235,250,250,392.5,BD
DQ,Lee Kindret,M,1996-10-09,,,Raw,Open,108.6,110,,,,,,200,-215,-215,,200,-350,-350,,,,BD
1,Chris Durette,M,1976-01-26,,AB,Raw,M45-49,99.1,100,,,,,,160,165,-175,,165,,,,,165,B
1,Eric Gagner,M,1986-12-31,,AB,Raw,Open,123.9,125,,,,,,-175,175,-190,,175,,,,,175,B
1,Brien Gehring,M,1988-01-06,,AB,Raw,Open,72.8,75,,,,,,,,,,,217.5,225,232.5,232.5,232.5,D
3,Casidy Helgeson,F,1992-02-23,,,Raw,Open,83.5,90,,,,,132.5,,,,,70,,,,145,347.5,SBD
